<?xml version="1.0" standalone="no"?>
<!DOCTYPE svg PUBLIC "-//W3C//DTD SVG 1.1//EN" "http://www.w3.org/Graphics/SVG/1.1/DTD/svg11.dtd" >
<svg xmlns="http://www.w3.org/2000/svg" xmlns:xlink="http://www.w3.org/1999/xlink" version="1.1">
<metadata>
Created by FontForge 20170924 at Tue Aug 29 10:39:48 2006
 By www-data
Copyrighted (c) 1981, 1997 by and the property of Linotype-Hell AG and/or its subsidiaries. All Rights Reserved. All Cyrillic characters designed by DoubleAlex. Helvetica is a registered Trademark of Linotype-Hell AG and/or its subsidiaries.
</metadata>
<defs>
<font id="HelveticaNeueCyr-Black" horiz-adv-x="668" >
  <font-face 
    font-family="HelveticaNeueCyr"
    font-weight="900"
    font-stretch="normal"
    units-per-em="1000"
    panose-1="2 0 9 3 5 0 0 2 0 4"
    ascent="800"
    descent="-200"
    x-height="516"
    cap-height="712"
    bbox="-82 -214 1130 911"
    underline-thickness="50"
    underline-position="-200"
    unicode-range="U+0020-E001"
  />
<missing-glyph horiz-adv-x="1000" 
 />
    <glyph glyph-name=".notdef" horiz-adv-x="1000" 
 />
    <glyph glyph-name=".null" horiz-adv-x="0" 
 />
    <glyph glyph-name="nonmarkingreturn" horiz-adv-x="333" 
 />
    <glyph glyph-name="space" unicode=" " horiz-adv-x="334" 
 />
    <glyph glyph-name="exclam" unicode="!" horiz-adv-x="315" 
d="M260 712v-161l-55 -294h-96l-54 290v165h205zM260 205v-205h-205v205h205z" />
    <glyph glyph-name="quotedbl" unicode="&#x22;" horiz-adv-x="519" 
d="M209 396h-97l-27 296h150zM408 396h-97l-27 296h150z" />
    <glyph glyph-name="numbersign" unicode="#" 
d="M540 395l-18 -95h79v-136h-105l-31 -164h-166l31 164h-66l-31 -164h-166l32 164h-77v136h104l18 95h-76v136h102l31 162h164l-31 -162h67l31 162h165l-31 -162h80v-136h-106zM308 395l-17 -95h66l17 95h-66z" />
    <glyph glyph-name="dollar" unicode="$" 
d="M365 789v-82q110 -3 183 -53.5t73 -156.5v-14h-181v7q0 39 -18 59.5t-57 24.5v-136q8 -2 24 -5q125 -28 173 -55q86 -53 87 -164q0 -101 -78.5 -164.5t-205.5 -63.5v-90h-60v90h-5q-77 0 -140 24t-105 79.5t-42 136.5q0 4 1 7h200v-7q0 -93 91 -98v151q-263 42 -263 213
q0 73 39.5 122t95.5 69t128 24v82h60zM305 451v124q-82 -2 -82 -60q0 -10 2.5 -18t8.5 -14l10 -10t14.5 -8t14.5 -5t17 -4.5t15 -4.5zM365 264v-137q87 3 87 68q0 29 -20 45t-67 24z" />
    <glyph glyph-name="percent" unicode="%" horiz-adv-x="1019" 
d="M756 709l-388 -729h-109l388 729h109zM779 365q83 0 129 -48.5t46 -136.5t-43.5 -140.5t-131.5 -52.5q-82 0 -127.5 49t-45.5 138q0 90 45.5 140.5t127.5 50.5zM782 278q-48 0 -47 -97v-6v-8q0 -27 1 -42.5t11.5 -32.5t31.5 -17q26 0 36 23.5t10 85.5q0 22 -1 33.5
t-4.5 28t-13 24.5t-24.5 8zM245 701q83 0 129 -48.5t46 -136.5t-43.5 -140.5t-131.5 -52.5q-82 0 -127.5 49t-45.5 138q0 90 45.5 140.5t127.5 50.5zM248 614q-48 0 -47 -97v-6v-8q0 -27 1 -42.5t11.5 -32.5t31.5 -17q26 0 36 23.5t10 85.5q0 22 -1 33.5t-4.5 28t-13 24.5
t-24.5 8z" />
    <glyph glyph-name="ampersand" unicode="&#x26;" horiz-adv-x="741" 
d="M688 350q-16 -99 -87 -173l150 -177h-235l-41 51q-52 -35 -93.5 -50.5t-96.5 -15.5q-103 0 -177 58.5t-74 160.5q0 67 41 122t114 87q-55 67 -55 130q0 77 62.5 130t153.5 53q89 0 148.5 -54.5t59.5 -136.5q0 -115 -117 -174l55 -66q17 19 28 55h164zM347 474
q26 16 40 32.5t14 42.5q0 20 -13.5 33t-35.5 13q-21 0 -35 -13t-14 -33q0 -31 44 -75zM290 283q-69 -32 -69 -75q0 -26 20 -43t50 -17q44 0 81 35z" />
    <glyph glyph-name="quotesingle" unicode="'" horiz-adv-x="296" 
d="M194 396h-92l-29 296h150z" />
    <glyph glyph-name="parenleft" unicode="(" horiz-adv-x="315" 
d="M320 721q-90 -208 -90 -449q0 -102 25.5 -223t69.5 -216h-176q-107 206 -107 435q0 107 25 229.5t82 223.5h171z" />
    <glyph glyph-name="parenright" unicode=")" horiz-adv-x="315" 
d="M273 268q0 -229 -107 -435h-176q44 95 69.5 216t25.5 223q0 241 -90 449h171q57 -101 82 -223.5t25 -229.5z" />
    <glyph glyph-name="asterisk" unicode="*" horiz-adv-x="463" 
d="M443 526l-126 -39l80 -106l-90 -67l-78 111l-77 -111l-89 67l83 106l-127 39l35 106l123 -47l-3 135h115l-6 -135l123 47z" />
    <glyph glyph-name="plus" unicode="+" horiz-adv-x="600" 
d="M42 340h177v180h164v-180h177v-157h-177v-183h-164v183h-177v157z" />
    <glyph glyph-name="comma" unicode="," horiz-adv-x="334" 
d="M250 205v-181q0 -91 -56 -149.5t-148 -59.5v92q41 9 62 30.5t24 62.5h-86v205h204z" />
    <glyph glyph-name="hyphen" unicode="-" horiz-adv-x="407" 
d="M360 352v-170h-313v170h313z" />
    <glyph glyph-name="period" unicode="." horiz-adv-x="334" 
d="M251 205v-205h-206v205h206z" />
    <glyph glyph-name="slash" unicode="/" horiz-adv-x="426" 
d="M435 731l-257 -748h-187l257 748h187z" />
    <glyph glyph-name="zero" unicode="0" 
d="M334 700q96 0 164.5 -51t99.5 -129t31 -173q0 -97 -30.5 -176t-99 -129.5t-165.5 -50.5q-143 0 -220 103.5t-77 251.5q0 160 81.5 257t215.5 97zM334 543q-30 0 -51 -14.5t-32 -34.5t-17 -51.5t-7 -53t-1 -51.5q0 -190 108 -190q107 0 107 199q0 100 -26 148t-81 48z" />
    <glyph glyph-name="one" unicode="1" 
d="M488 693v-693h-208v397h-162v146h19q76 0 129.5 40.5t55.5 109.5h166z" />
    <glyph glyph-name="two" unicode="2" 
d="M635 169v-169h-600v12q0 47 12.5 86.5t37.5 72.5t54 58t69 53q34 24 74 47.5t62 36t42.5 28t28.5 31t8 36.5q-1 32 -23.5 50.5t-60.5 18.5q-58 0 -79.5 -34t-24.5 -94h-187v10q0 141 76 214.5t223 73.5q125 0 200 -60.5t75 -160.5q0 -42 -10.5 -75t-35.5 -59.5
t-46.5 -43.5t-61.5 -43q-21 -14 -77.5 -46t-84.5 -53q89 9 154 9z" />
    <glyph glyph-name="three" unicode="3" 
d="M54 463q5 119 80.5 178t200.5 59t199.5 -53.5t74.5 -144.5q0 -52 -26.5 -86.5t-72.5 -42.5q57 -13 88.5 -53t31.5 -100q0 -48 -17 -87t-45.5 -65t-67 -43.5t-79.5 -25.5t-85 -8q-133 0 -217.5 63t-84.5 189q0 11 1 19h188v-10q0 -97 104 -97q47 0 73 19t26 54
q0 73 -108 73q-1 0 -5.5 -0.5t-12.5 -0.5h-17h-8v129q12 -1 33 -1q38 0 52 1q29 2 46.5 17.5t17.5 38.5q0 28 -24 45t-65 17q-93 0 -94 -84h-187z" />
    <glyph glyph-name="four" unicode="4" 
d="M635 315v-164h-91v-151h-203v151h-306v182l311 359h198v-377h91zM348 314v132l3 64l-165 -199q45 3 62 3h100z" />
    <glyph glyph-name="five" unicode="5" 
d="M587 692v-166h-318l-8 -42q-4 -24 -16 -59q59 51 149 51q107 0 169.5 -61t62.5 -166q0 -129 -86 -193.5t-217 -64.5q-130 0 -211.5 55.5t-87.5 175.5h194q6 -73 104 -73q50 0 78 25.5t28 71.5q0 47 -27.5 72.5t-79.5 25.5q-65 0 -92 -50h-181l69 398h470z" />
    <glyph glyph-name="six" unicode="6" 
d="M622 509h-184q-14 54 -77 54q-33 0 -56.5 -12t-37 -35t-20.5 -46.5t-11 -54.5q63 51 153 51q112 0 175.5 -58t63.5 -162q0 -117 -82 -186t-200 -69q-148 0 -224 95t-76 243q0 78 18 143.5t54 117t98 81t143 29.5q104 0 173 -47t90 -144zM344 342q-42 0 -69.5 -28
t-27.5 -71q0 -42 27.5 -69.5t69.5 -27.5t70 28t28 70q0 41 -28 69.5t-70 28.5z" />
    <glyph glyph-name="seven" unicode="7" 
d="M599 692v-160q-208 -219 -208 -516v-16h-219q-1 5 -1 10q0 122 73 283t158 228q-103 -4 -129 -4h-208v175h534z" />
    <glyph glyph-name="eight" unicode="8" 
d="M164 366q-108 33 -108 141q0 89 75.5 141t202.5 52q49 0 95 -10t89 -30.5t69 -59.5t26 -91q0 -56 -27.5 -93t-79.5 -50q136 -34 136 -159q0 -58 -27.5 -102t-73 -67.5t-96.5 -35t-106 -11.5q-45 0 -86 5.5t-83.5 20.5t-73.5 38t-50.5 61t-19.5 87q0 133 138 163zM333 565
q-49 0 -77 -19t-28 -53q0 -35 28.5 -54.5t80.5 -19.5q49 0 77 20.5t28 55.5q0 70 -109 70zM332 300q-53 0 -82 -21.5t-29 -60.5q0 -40 30 -62t85 -22q53 0 82 21.5t29 61.5q0 39 -30.5 61t-84.5 22z" />
    <glyph glyph-name="nine" unicode="9" 
d="M45 182h184q17 -64 89 -64q26 0 45 9.5t29.5 20.5t18.5 34.5t10 36.5t6 42q1 9 2 14q-51 -51 -145 -51q-113 0 -180 53.5t-67 164.5q0 117 82 187.5t202 70.5q146 0 223.5 -95.5t77.5 -247.5q0 -76 -18 -140.5t-54 -115.5t-97 -80.5t-140 -29.5q-116 0 -185.5 49.5
t-82.5 141.5zM322 542q-42 0 -69.5 -26.5t-27.5 -67.5q0 -42 28 -70.5t70 -28.5q41 0 69 28t28 68q0 42 -28 69.5t-70 27.5z" />
    <glyph glyph-name="colon" unicode=":" horiz-adv-x="334" 
d="M259 510v-204h-203v204h203zM259 205v-205h-203v205h203z" />
    <glyph glyph-name="semicolon" unicode=";" horiz-adv-x="334" 
d="M258 509v-204h-204v204h204zM258 205v-167q0 -107 -48.5 -163t-155.5 -60v91q80 12 88 94h-88v205h204z" />
    <glyph glyph-name="less" unicode="&#x3c;" horiz-adv-x="600" 
d="M589 -28l-578 217v145l578 216v-169l-364 -120l364 -120v-169z" />
    <glyph glyph-name="equal" unicode="=" horiz-adv-x="600" 
d="M21 454h559v-153h-559v153zM21 234h559v-152h-559v152z" />
    <glyph glyph-name="greater" unicode="&#x3e;" horiz-adv-x="600" 
d="M11 550l578 -216v-145l-578 -217v169l365 120l-365 120v169z" />
    <glyph glyph-name="question" unicode="?" horiz-adv-x="574" 
d="M16 475q6 121 79 187.5t200 66.5q110 0 186 -56.5t76 -158.5q0 -57 -27 -92.5t-83 -64.5l-16 -8t-16 -8.5t-13.5 -8t-12.5 -9l-9 -10.5t-8 -13.5t-4 -15.5t-2 -19v-10h-183v10q0 75 17 112.5t77 65.5q2 1 10 4.5t10 4.5l9 4.5t9.5 5.5t8 5.5t7.5 6.5t5.5 7.5t5 9
t2.5 10.5t1 12q0 22 -15 35.5t-40 13.5q-67 0 -67 -87h-207zM375 205v-205h-204v205h204z" />
    <glyph glyph-name="at" unicode="@" horiz-adv-x="800" 
d="M457 224q-48 -66 -124 -66q-66 0 -105.5 45.5t-39.5 118.5q0 98 62.5 172t146.5 74q69 0 100 -47l9 30h122l-63 -213q-12 -43 -12 -60q0 -26 26 -26q36 0 68.5 55.5t32.5 125.5q0 99 -70 159.5t-186 60.5q-138 0 -227.5 -87.5t-89.5 -220.5q0 -126 85.5 -206t221.5 -80
q73 0 134 24t132 75l45 -61q-154 -115 -315 -115q-169 0 -280.5 104t-111.5 262q0 162 117 272t288 110q151 0 248.5 -85t97.5 -218q0 -104 -65 -187t-150 -83q-36 0 -62.5 18.5t-34.5 48.5zM424 474q-40 0 -68 -56.5t-28 -106.5q0 -59 38 -59q39 0 66.5 69t27.5 115
q0 38 -36 38z" />
    <glyph glyph-name="A" unicode="A" horiz-adv-x="722" 
d="M469 712l262 -712h-221l-35 101h-229l-35 -101h-221l263 712h216zM427 254l-38 122q-13 43 -27 108q-16 -64 -30 -109q-15 -49 -39 -121h134z" />
    <glyph glyph-name="B" unicode="B" horiz-adv-x="741" 
d="M59 712h359q253 0 253 -178q0 -90 -89 -143q124 -43 124 -175q0 -60 -22.5 -103.5t-62.5 -67.5t-86 -34.5t-102 -10.5h-374v712zM271 550v-110h123q31 0 48.5 14.5t17.5 39.5q0 56 -76 56h-113zM271 303v-134h135q83 0 83 66q0 68 -83 68h-135z" />
    <glyph glyph-name="C" unicode="C" horiz-adv-x="759" 
d="M727 281q-9 -142 -101.5 -220t-228.5 -78q-161 0 -259 107t-98 268q0 159 100.5 265.5t260.5 106.5q130 0 222.5 -80.5t100.5 -200.5h-212q-9 48 -39 74t-76 26q-48 0 -80.5 -30.5t-44.5 -71.5t-12 -89q0 -89 36.5 -140t100.5 -51q98 0 115 114h215z" />
    <glyph glyph-name="D" unicode="D" horiz-adv-x="778" 
d="M62 712h318q165 0 262 -94.5t97 -259.5q0 -176 -93.5 -267t-269.5 -91h-314v712zM276 533v-353h86q79 0 119.5 46t40.5 128q0 89 -47.5 134t-133.5 45h-65z" />
    <glyph glyph-name="E" unicode="E" horiz-adv-x="704" 
d="M649 712v-173h-375v-89h340v-165h-340v-104h385v-181h-600v712h590z" />
    <glyph glyph-name="F" unicode="F" horiz-adv-x="630" 
d="M609 712v-179h-333v-109h287v-168h-287v-256h-218v712h551z" />
    <glyph glyph-name="G" unicode="G" horiz-adv-x="778" 
d="M728 392v-392h-139l-7 73q-75 -89 -206 -89q-151 0 -245 103t-94 269q0 164 101.5 268.5t261.5 104.5q122 0 212.5 -73.5t104.5 -192.5h-210q-22 83 -111 83q-139 0 -139 -201q0 -93 38 -141t112 -48q100 0 122 83h-94v153h293z" />
    <glyph glyph-name="H" unicode="H" horiz-adv-x="759" 
d="M701 712v-712h-218v281h-206v-281h-219v712h219v-239h206v239h218z" />
    <glyph glyph-name="I" unicode="I" horiz-adv-x="333" 
d="M276 712v-712h-218v712h218z" />
    <glyph glyph-name="J" unicode="J" horiz-adv-x="611" 
d="M559 712v-474q0 -125 -68.5 -190t-195.5 -65q-128 0 -195.5 69t-67.5 194v53h196v-21v-18.5v-20.5t1 -19t3.5 -20t6.5 -16t10.5 -14.5t16 -8t21.5 -3.5q28 0 41 16.5t13 53.5v484h218z" />
    <glyph glyph-name="K" unicode="K" horiz-adv-x="778" 
d="M747 712l-258 -277l299 -435h-273l-174 277l-64 -67v-210h-215v712h216l-1 -144q0 -16 -3 -109l203 253h270z" />
    <glyph glyph-name="L" unicode="L" horiz-adv-x="630" 
d="M593 186v-186h-535v712h219v-526h316z" />
    <glyph glyph-name="M" unicode="M" horiz-adv-x="944" 
d="M885 712v-712h-205v107q0 189 8 405l-134 -512h-163l-135 512q7 -162 8 -375l1 -137h-205v712h313l46 -185q36 -149 55 -270q15 86 60 275l44 180h307z" />
    <glyph glyph-name="N" unicode="N" horiz-adv-x="759" 
d="M701 712v-712h-209l-177 303q-25 43 -54 107q7 -64 7 -163l1 -247h-211v712h216l154 -267q47 -80 70 -134q-6 81 -6 164l-1 237h210z" />
    <glyph glyph-name="O" unicode="O" horiz-adv-x="796" 
d="M403 731q160 0 258 -103.5t98 -271.5q0 -167 -98.5 -270t-259.5 -103q-164 0 -264 102.5t-100 271.5t100 271.5t266 102.5zM400 556q-66 0 -103.5 -52t-37.5 -144q0 -95 37 -147.5t105 -52.5q67 0 102 52.5t35 153.5q0 89 -36.5 139.5t-101.5 50.5z" />
    <glyph glyph-name="P" unicode="P" horiz-adv-x="704" 
d="M58 712h310q311 0 311 -253q0 -118 -73.5 -178.5t-194.5 -60.5h-136v-220h-217v712zM275 537v-151h105q90 0 90 75q0 76 -94 76h-101z" />
    <glyph glyph-name="Q" unicode="Q" horiz-adv-x="796" 
d="M760 21l-97 -98l-102 103q-68 -43 -173 -43q-157 0 -254 103t-97 269q0 164 103 270t263 106q153 0 253 -104.5t100 -263.5q0 -78 -23 -145t-63 -105zM523 260q15 31 15 98q0 95 -36 146t-104 51q-67 0 -104 -52.5t-37 -146.5q0 -90 37 -145.5t98 -55.5q21 0 38 9l-64 62
l97 96z" />
    <glyph glyph-name="R" unicode="R" horiz-adv-x="741" 
d="M57 712h383q45 0 87 -10t81 -32.5t62.5 -65.5t23.5 -102q0 -58 -28.5 -105t-76.5 -69q48 -12 73 -64t31 -112l7 -75q5 -57 18 -77h-216q-9 19 -13 67l-3 40q-3 36 -7.5 58t-16.5 44t-36 32t-61 10h-92v-251h-216v712zM273 547v-146h120q89 0 89 74q0 72 -101 72h-108z
" />
    <glyph glyph-name="S" unicode="S" horiz-adv-x="667" 
d="M617 496h-205q-1 32 -25 50t-66 18q-72 0 -72 -44q0 -12 12 -23t33.5 -18.5t39.5 -12.5t40.5 -9.5t26.5 -5.5q42 -11 72 -21t65 -28.5t56.5 -41t36.5 -57t15 -77.5q0 -111 -84 -176.5t-227 -65.5q-149 0 -235 68.5t-88 187.5h219q5 -92 111 -92q41 0 65 16t24 43
q0 17 -14 29q-13 11 -50 24t-87.5 27.5t-63.5 19.5q-43 15 -71 29t-54 36.5t-38.5 55t-12.5 76.5q0 100 79.5 161.5t208.5 61.5q136 0 211.5 -60.5t77.5 -170.5z" />
    <glyph glyph-name="T" unicode="T" 
d="M642 712v-183h-200v-529h-218v529h-199v183h617z" />
    <glyph glyph-name="U" unicode="U" horiz-adv-x="759" 
d="M703 712v-421q0 -163 -81.5 -233.5t-242.5 -70.5q-323 0 -323 292v433h218v-436q0 -56 26 -83t83 -27q102 0 102 110v436h218z" />
    <glyph glyph-name="V" unicode="V" horiz-adv-x="648" 
d="M663 712l-219 -712h-246l-213 712h221l36 -127q64 -225 81 -367q19 135 82 366l35 128h223z" />
    <glyph glyph-name="W" unicode="W" horiz-adv-x="963" 
d="M967 712l-195 -712h-213l-33 174q-36 192 -47 289q-5 -75 -43 -287l-31 -176h-215l-195 712h215l36 -161q41 -186 52 -342q9 112 53 337l33 166h193l29 -142q48 -241 57 -361q12 149 61 375l28 128h215z" />
    <glyph glyph-name="X" unicode="X" horiz-adv-x="741" 
d="M725 712l-227 -334l255 -378h-264l-69 116q-28 47 -52 102q-33 -67 -57 -105l-68 -113h-253l259 378l-235 334h256l54 -94q26 -44 53 -105q27 57 47 94l58 105h243z" />
    <glyph glyph-name="Y" unicode="Y" horiz-adv-x="667" 
d="M695 712l-255 -455v-257h-215v262l-254 450h242l53 -113q53 -114 67 -157q25 65 76 172l47 98h239z" />
    <glyph glyph-name="Z" unicode="Z" horiz-adv-x="685" 
d="M646 712v-161l-232 -253q-33 -36 -114 -117q135 5 154 5h206v-186h-636v174l248 270q34 37 89 88q-123 -3 -131 -3l-188 -1v184h604z" />
    <glyph glyph-name="bracketleft" unicode="[" horiz-adv-x="407" 
d="M397 712v-153h-148v-565h148v-152h-329v870h329z" />
    <glyph glyph-name="backslash" unicode="\" horiz-adv-x="426" 
d="M435 -17h-187l-257 748h187z" />
    <glyph glyph-name="bracketright" unicode="]" horiz-adv-x="407" 
d="M339 712v-870h-329v152h148v566h-148v152h329z" />
    <glyph glyph-name="asciicircum" unicode="^" horiz-adv-x="600" 
d="M48 256l176 436h153l175 -436h-158l-94 255l-93 -255h-159z" />
    <glyph glyph-name="underscore" unicode="_" horiz-adv-x="500" 
d="M0 -125v50h500v-50h-500z" />
    <glyph glyph-name="grave" unicode="`" horiz-adv-x="278" 
d="M126 712l101 -145h-137l-172 145h208z" />
    <glyph glyph-name="a" unicode="a" horiz-adv-x="611" 
d="M583 0h-200q-7 26 -8 48q-65 -65 -165 -65q-88 0 -137.5 43t-49.5 119q0 39 16 68t32.5 44.5t56.5 28t57 15.5t66 10q2 1 3.5 1t4 0.5t4.5 0.5q5 1 24 2.5t29.5 3.5t25 7t21.5 15t7 24q0 45 -65 45q-36 0 -52 -11t-21 -41h-185q7 173 258 173q199 0 244 -96
q14 -29 14 -94q0 -31 -1 -91.5t-1 -102.5q0 -103 22 -147zM371 235q-22 -15 -92 -30q-54 -12 -54 -54q0 -24 15 -38t41 -14q54 0 78 40q12 20 12 65v31z" />
    <glyph glyph-name="b" unicode="b" horiz-adv-x="648" 
d="M252 712v-193l-1 -58q33 37 66.5 52.5t82.5 15.5q72 0 123 -40t72.5 -98.5t21.5 -129.5q0 -123 -62 -198.5t-163 -75.5q-95 0 -147 69v-56h-190v712h197zM332 379q-41 0 -63.5 -30.5t-22.5 -86.5q0 -118 87 -118q85 0 85 117q0 55 -23 86.5t-63 31.5z" />
    <glyph glyph-name="c" unicode="c" horiz-adv-x="611" 
d="M585 207q-14 -104 -85.5 -162t-184.5 -58q-125 0 -203.5 74t-78.5 193q0 123 78 198.5t205 75.5q112 0 184.5 -57t80.5 -150h-189q-4 31 -24.5 49t-49.5 18q-87 0 -87 -135q0 -122 86 -122q67 0 79 76h189z" />
    <glyph glyph-name="d" unicode="d" horiz-adv-x="648" 
d="M593 712v-712h-189v56q-53 -69 -144 -69q-104 0 -166.5 75t-62.5 200q0 121 59.5 194t158.5 73q88 0 147 -69v252h197zM316 378q-86 0 -86 -119q0 -115 86 -115q42 0 64.5 30t22.5 86q0 57 -22.5 87.5t-64.5 30.5z" />
    <glyph glyph-name="e" unicode="e" horiz-adv-x="630" 
d="M590 155q-23 -82 -99.5 -126t-167.5 -44q-126 0 -209 71t-83 196q0 121 80.5 199t204.5 78q130 0 207.5 -81t77.5 -218v-15h-380q2 -49 28.5 -76t72.5 -27q55 0 83 43h185zM408 314q-8 88 -91 88q-80 0 -95 -88h186z" />
    <glyph glyph-name="f" unicode="f" horiz-adv-x="389" 
d="M390 710v-135q-22 1 -44 1q-40 0 -51 -7t-11 -30v-23h102v-122h-102v-394h-197v394h-81v122h81v21q0 54 15.5 89.5t47 53.5t68 25t87.5 7q29 0 85 -2z" />
    <glyph glyph-name="g" unicode="g" horiz-adv-x="630" 
d="M580 516v-443q0 -134 -69 -190.5t-205 -56.5q-52 0 -93 7t-79 25t-62 53t-30 85h197q8 -26 24 -36t49 -10q47 0 62 23.5t15 69.5v59q-54 -65 -146 -65q-102 0 -160 65t-58 180q0 114 59.5 181.5t160.5 67.5q51 0 84 -18t60 -59v62h191zM304 384q-42 0 -64.5 -27
t-22.5 -77t23 -77.5t65 -27.5q43 0 65.5 27.5t22.5 77.5t-23 77t-66 27z" />
    <glyph glyph-name="h" unicode="h" horiz-adv-x="648" 
d="M250 712v-261q60 77 158 77q186 0 186 -195v-333h-196v285q0 41 -15 63t-55 22q-78 0 -78 -106v-264h-194v712h194z" />
    <glyph glyph-name="i" unicode="i" horiz-adv-x="315" 
d="M256 712v-138h-198v138h198zM256 516v-516h-198v516h198z" />
    <glyph glyph-name="j" unicode="j" horiz-adv-x="315" 
d="M259 516v-504q0 -56 -12.5 -92t-40 -55t-62.5 -25.5t-89 -6.5q-14 0 -41.5 0.5t-41.5 0.5v157q6 -1 12 -1q49 0 62.5 9.5t13.5 53.5v463h199zM259 712v-141h-199v141h199z" />
    <glyph glyph-name="k" unicode="k" horiz-adv-x="611" 
d="M595 516l-183 -195l213 -321h-234l-108 189l-34 -34v-155h-196v712h196v-3v-3v-3v-3v-3v-3v-3v-3v-3v-3v-3v-3v-3v-3v-3v-3v-3v-3v-3v-3v-3v-3v-3v-3v-3v-3v-3v-3v-3v-3v-3v-3v-3v-3v-3v-3v-3v-3v-3v-3v-3v-3v-3v-3v-3v-3v-3v-3v-3v-3v-3v-3v-3v-3v-3v-3v-3v-3v-3v-3v-3
v-3v-3v-3v-3v-3v-3v-3v-3v-3v-3v-3v-3v-3v-3v-3v-3v-3v-3v-3v-3v-3v-3v-3v-3v-3v-3v-3v-3v-3v-3v-3v-3v-3v-3v-3v-3v-3v-3v-3v-2v-3v-9l-3 -40q19 28 38 51l90 107h221z" />
    <glyph glyph-name="l" unicode="l" horiz-adv-x="315" 
d="M256 712v-712h-198v712h198z" />
    <glyph glyph-name="m" unicode="m" horiz-adv-x="963" 
d="M246 516v-66q56 81 162 81t146 -82q58 82 166 82q87 0 138 -52t51 -140v-339h-200v291q0 83 -63 83q-66 0 -66 -87v-287h-197v298q0 79 -62 79q-67 0 -67 -90v-287h-198v516h190z" />
    <glyph glyph-name="n" unicode="n" horiz-adv-x="648" 
d="M245 516v-64q63 78 164 78q98 0 142 -56t44 -148v-326h-199v289q0 82 -67 82q-76 0 -76 -87v-284h-198v516h190z" />
    <glyph glyph-name="o" unicode="o" horiz-adv-x="630" 
d="M317 531q125 0 203 -75t78 -196q0 -122 -79 -198.5t-204 -76.5q-126 0 -205 76t-79 197t79.5 197t206.5 76zM313 388q-84 0 -84 -130q0 -131 86 -131q85 0 85 133q0 128 -87 128z" />
    <glyph glyph-name="p" unicode="p" horiz-adv-x="648" 
d="M245 516v-56q53 69 148 69q101 0 162.5 -75.5t61.5 -199.5q0 -122 -59 -194.5t-158 -72.5q-86 0 -148 68v-221h-197v682h190zM332 371q-86 0 -86 -118q0 -116 87 -116q86 0 86 117t-87 117z" />
    <glyph glyph-name="q" unicode="q" horiz-adv-x="648" 
d="M593 516v-682h-196v222q-56 -69 -149 -69q-98 0 -157.5 72.5t-59.5 193.5q0 124 62 200t163 76q92 0 148 -68v55h189zM314 372q-85 0 -85 -121q0 -114 87 -114t87 117q0 118 -89 118z" />
    <glyph glyph-name="r" unicode="r" horiz-adv-x="444" 
d="M445 521v-173q-42 14 -73 14q-60 0 -91.5 -33.5t-31.5 -94.5v-234h-197v516h189l-1 -80q28 48 64 71t90 23q24 0 51 -9z" />
    <glyph glyph-name="s" unicode="s" horiz-adv-x="574" 
d="M533 365h-179q-5 28 -20 38t-50 10q-54 0 -54 -31q0 -11 8.5 -19.5t25.5 -14t29 -8t31 -5t20 -2.5q36 -7 59.5 -12.5t53.5 -18.5t48 -29t30.5 -43t12.5 -62q0 -85 -69 -133t-191 -48q-247 0 -262 185h187q4 -32 22.5 -46.5t56.5 -14.5q29 0 45.5 11t16.5 30t-16 27
t-61 18q-15 3 -24 5q-102 22 -136 39q-80 39 -80 127q0 79 64.5 121t186.5 42q105 0 171 -36.5t74 -129.5z" />
    <glyph glyph-name="t" unicode="t" horiz-adv-x="407" 
d="M396 516v-123h-107v-184q0 -42 11.5 -56.5t54.5 -14.5q28 0 41 2v-143q-60 -4 -104 -4q-109 0 -154.5 38t-45.5 131v231h-85v123h85v159h197v-159h107z" />
    <glyph glyph-name="u" unicode="u" horiz-adv-x="648" 
d="M594 516v-516h-192v66q-51 -81 -158 -81q-188 0 -188 212v319h200v-297q0 -70 67 -70q45 0 59 28t14 77v262h198z" />
    <glyph glyph-name="v" unicode="v" horiz-adv-x="556" 
d="M564 516l-169 -516h-232l-172 516h209l41 -152q28 -105 39 -190q7 67 38 178l46 164h200z" />
    <glyph glyph-name="w" unicode="w" horiz-adv-x="870" 
d="M875 516l-163 -516h-201l-44 169q-20 77 -33 185q-14 -100 -34 -185l-41 -169h-202l-163 516h205l37 -145q24 -98 39 -204q18 122 38 212l30 137h184l34 -151q21 -94 35 -196q13 96 37 193l38 154h204z" />
    <glyph glyph-name="x" unicode="x" horiz-adv-x="556" 
d="M546 516l-161 -244l183 -272h-217l-38 62q-16 26 -35 75q-22 -51 -38 -77l-35 -60h-218l181 272l-162 244h216l27 -48q21 -40 31 -62q23 52 33 70l23 40h210z" />
    <glyph glyph-name="y" unicode="y" horiz-adv-x="556" 
d="M567 516l-189 -528q-31 -87 -75.5 -121t-135.5 -34h-129v158q21 -1 46 -1q16 0 26 1t23 4.5t20 13t7 24.5q0 10 -6 25l-168 458h210l58 -204q14 -50 25 -120q18 92 28 126l57 198h203z" />
    <glyph glyph-name="z" unicode="z" horiz-adv-x="556" 
d="M513 516v-150l-146 -135q-29 -27 -101 -85q54 5 87 5h182v-151h-514v152l143 127q63 55 109 91q-45 -3 -64 -3h-166v149h470z" />
    <glyph glyph-name="braceleft" unicode="{" horiz-adv-x="407" 
d="M19 321q55 11 83.5 36t28.5 77v87q0 47 15 81t36.5 53.5t58.5 32t69 17t79 7.5v-88q-97 -13 -97 -115v-45q0 -88 -34.5 -133t-119.5 -54q84 -9 119 -54t35 -133v-45q0 -102 97 -115v-88q-68 3 -112.5 13t-79.5 32.5t-50.5 63.5t-15.5 103v66q0 96 -112 113v88z" />
    <glyph glyph-name="bar" unicode="|" horiz-adv-x="222" 
d="M30 -214v1000h162v-1000h-162z" />
    <glyph glyph-name="braceright" unicode="}" horiz-adv-x="407" 
d="M389 233q-112 -17 -112 -113v-66q0 -62 -15.5 -103t-50.5 -63.5t-79.5 -32.5t-112.5 -13v88q97 13 97 115v45q0 88 35 133t119 54q-85 9 -119.5 54t-34.5 133v45q0 102 -97 115v88q47 -3 79 -7.5t69 -17t58.5 -32t36.5 -53.5t15 -81v-87q0 -52 28.5 -77t83.5 -36v-88z
" />
    <glyph glyph-name="asciitilde" unicode="~" horiz-adv-x="600" 
d="M97 141h-96q29 236 167 236q49 0 112 -24q118 -46 149 -46q28 0 45.5 18.5t28.5 61.5h97q-4 -50 -21 -100.5t-56.5 -93t-91.5 -42.5q-48 0 -141 35q-8 3 -25.5 10t-26 10t-22 7.5t-25 6t-22.5 1.5q-51 0 -72 -80z" />
    <glyph glyph-name="sterling" unicode="&#xa3;" 
d="M612 474h-192v5q0 85 -68 85q-27 0 -44 -15.5t-17 -39.5q0 -21 16.5 -56.5t18.5 -40.5h108v-123h-74q3 -18 3 -26q0 -62 -55 -107q31 12 65 12q18 0 58 -8q29 -6 44 -6q54 0 88 50l78 -141q-67 -76 -177 -76q-44 0 -134 22q-53 13 -85 13q-55 0 -111 -39l-76 112
q109 73 109 150q0 21 -9 44h-113v123l38 -1l33 -2q-41 51 -41 113q0 91 74 145.5t196 54.5q258 0 267 -248z" />
    <glyph glyph-name="currency" unicode="&#xa4;" 
d="M596 174l-87 -88l-67 67q-56 -28 -109 -28q-52 0 -110 28l-67 -67l-87 88l67 67q-28 50 -28 109q0 52 28 109l-67 67l87 88l68 -67q65 28 107 28q56 0 110 -29l67 67l87 -87l-66 -66q29 -65 29 -111q0 -54 -29 -109zM414 351q0 33 -23.5 56.5t-57.5 23.5q-33 0 -57 -23.5
t-24 -56.5q0 -34 23.5 -57.5t57.5 -23.5t57.5 23.5t23.5 57.5z" />
    <glyph glyph-name="brokenbar" unicode="&#xa6;" horiz-adv-x="222" 
d="M36 -25v303h150v-303h-150zM36 433v302h150v-302h-150z" />
    <glyph glyph-name="section" unicode="&#xa7;" horiz-adv-x="667" 
d="M580 529h-169q-3 58 -62 58q-25 0 -39.5 -11.5t-14.5 -30.5q0 -6 2 -11t6 -10t8.5 -9t13 -8.5t15 -8t18 -8.5t20 -8t23 -9t24.5 -10q9 -4 35 -14t37.5 -15t33.5 -15.5t33.5 -19t27 -22.5t23 -28.5t13 -34.5t5.5 -42q0 -53 -27.5 -91t-76.5 -54q52 -46 52 -112
q0 -89 -67.5 -142t-179.5 -53q-103 0 -174 49.5t-71 148.5v14h169q4 -64 74 -64q28 0 44.5 12.5t16.5 34.5q0 9 -2.5 16t-9 13.5t-13 11t-19 10t-21 9t-26 10.5t-28.5 11q-10 4 -38.5 15t-42 16t-38.5 17t-38.5 21.5t-31.5 25t-27 31t-15.5 37t-6.5 45.5q0 53 30 90.5
t81 56.5q-40 43 -40 99q0 78 67.5 128t171.5 50q102 0 167 -55t67 -144zM241 361q-16 0 -26 -10t-10 -26q0 -7 1.5 -12t6.5 -10l8 -8t12 -7.5t13.5 -6.5t17 -7l17.5 -7l107 -45q31 -14 43 -14q14 0 25 9.5t11 25.5q0 8 -4 15t-8.5 11.5t-13.5 10t-14 7.5t-16 6.5t-13 5.5
l-108 46q-37 16 -49 16z" />
    <glyph glyph-name="copyright" unicode="&#xa9;" horiz-adv-x="800" 
d="M768 357q0 -155 -109.5 -264.5t-264.5 -109.5t-265 109.5t-110 264.5t109.5 264.5t264.5 109.5t265 -109.5t110 -264.5zM683 357q0 120 -85 204.5t-205 84.5t-204.5 -84.5t-84.5 -204.5t84.5 -204.5t204.5 -84.5t205 84.5t85 204.5zM401 137q-90 0 -148.5 63t-58.5 157
q0 98 55.5 160.5t144.5 62.5q77 0 129.5 -47t58.5 -126h-105q-12 76 -78 76q-36 0 -58.5 -32.5t-22.5 -91.5q0 -60 23 -92.5t64 -32.5q33 0 49 17t24 56h105q-9 -78 -59 -124t-123 -46z" />
    <glyph glyph-name="guillemotleft" unicode="&#xab;" horiz-adv-x="444" 
d="M400 482v-154l-76 -62l76 -61v-157l-160 127v180zM204 481v-151l-77 -62l77 -64v-155l-160 128v178z" />
    <glyph glyph-name="logicalnot" unicode="&#xac;" horiz-adv-x="600" 
d="M28 301v153h538v-392h-150v239h-388z" />
    <glyph glyph-name="registered" unicode="&#xae;" horiz-adv-x="400" 
d="M199 731q76 0 130 -54t54 -130t-54.5 -129.5t-129.5 -53.5q-76 0 -130 54t-54 129q0 77 54 130.5t130 53.5zM199 692q-60 0 -102.5 -43t-42.5 -102q0 -60 42.5 -102t102.5 -42t102.5 42.5t42.5 101.5q0 60 -42.5 102.5t-102.5 42.5zM118 650h97q33 0 53 -16t20 -46
q0 -37 -36 -49q20 -10 25.5 -22t7.5 -37l1 -12q3 -21 4 -24h-58q-4 12 -4 28q0 27 -7 35t-31 8h-11v-71h-61v206zM179 560h13q35 0 35 24q0 22 -34 22h-14v-46z" />
    <glyph glyph-name="degree" unicode="&#xb0;" horiz-adv-x="400" 
d="M201 699q71 0 122 -50.5t51 -121.5q0 -72 -51 -122.5t-122 -50.5t-122 50.5t-51 122.5q0 71 51 121.5t122 50.5zM146 527q0 -23 16.5 -39.5t38.5 -16.5t38.5 16.5t16.5 39.5t-16 39t-39 16t-39 -16t-16 -39z" />
    <glyph glyph-name="plusminus" unicode="&#xb1;" horiz-adv-x="600" 
d="M215 188v117h-184v156h184v111h170v-111h184v-155h-184v-118h-170zM30 0v158h538v-158h-538z" />
    <glyph glyph-name="mu" unicode="&#xb5;" horiz-adv-x="648" 
d="M595 516v-516h-192v55q-30 -70 -86 -70q-41 0 -63 33l3 -185h-200v683h200v-279q0 -47 16 -68t52 -21q71 0 71 93v275h199z" />
    <glyph glyph-name="paragraph" unicode="&#xb6;" horiz-adv-x="620" 
d="M597 616h-53v-782h-126v782h-91v-782h-126v400q-92 2 -147.5 64.5t-55.5 162.5q0 119 73.5 185t190.5 66h335v-96z" />
    <glyph glyph-name="periodcentered" unicode="&#xb7;" horiz-adv-x="334" 
d="M270 387v-205h-206v205h206z" />
    <glyph glyph-name="guillemotright" unicode="&#xbb;" horiz-adv-x="444" 
d="M240 484l161 -129v-179l-161 -128v153l79 62l-79 65v156zM44 482l160 -127v-177l-160 -127v149l78 64l-78 62v156z" />
    <glyph glyph-name="divide" unicode="&#xf7;" horiz-adv-x="600" 
d="M21 345h558v-167h-558v167zM387 549v-168h-176v168h176zM387 142v-168h-176v168h176z" />
    <glyph glyph-name="florin" unicode="&#x192;" 
d="M530 412l-21 -120h-96l-48 -269q-21 -119 -74 -159t-178 -40q-24 0 -75 3l23 138q11 -1 23 -1q42 0 54 8t18 41l52 279h-92l20 120h94l21 114q21 115 73 156t165 41q61 0 92 -2l-24 -139q-14 1 -36 1q-20 0 -31.5 -3t-18.5 -14t-9 -17.5t-6 -28.5q-1 -7 -2 -10l-17 -98
h93z" />
    <glyph glyph-name="afii10023" unicode="&#x401;" horiz-adv-x="704" 
d="M649 712v-173h-375v-89h340v-165h-340v-104h385v-181h-600v712h590zM556 907v-138h-175v138h175zM327 907v-138h-176v138h176z" />
    <glyph glyph-name="afii10051" unicode="&#x402;" horiz-adv-x="857" 
d="M505 66h25q45 0 67 34t22 78q0 47 -23.5 77.5t-70.5 30.5q-48 0 -72.5 -32t-24.5 -88v-166h-223v529h-181v183h624v-183h-220v-143q21 25 62 45t85 20q119 0 188 -73t69 -190q0 -123 -71.5 -205t-210.5 -82h-45v165z" />
    <glyph glyph-name="afii10052" unicode="&#x403;" horiz-adv-x="611" 
d="M499 911l-178 -145h-131l98 145h211zM282 529v-529h-219v712h535v-183h-316z" />
    <glyph glyph-name="afii10053" unicode="&#x404;" horiz-adv-x="759" 
d="M727 276q-11 -140 -103 -216.5t-227 -76.5q-161 0 -259 107t-98 268q0 159 100.5 265.5t260.5 106.5q128 0 220 -78t102 -196h-212q-22 93 -114 93q-94 0 -125 -106h189v-158h-193q13 -56 46.5 -87t82.5 -31q96 0 114 109h216z" />
    <glyph glyph-name="afii10054" unicode="&#x405;" horiz-adv-x="667" 
d="M617 496h-205q-1 32 -25 50t-66 18q-72 0 -72 -44q0 -12 12 -23t33.5 -18.5t39.5 -12.5t40.5 -9.5t26.5 -5.5q42 -11 72 -21t65 -28.5t56.5 -41t36.5 -57t15 -77.5q0 -111 -84 -176.5t-227 -65.5q-149 0 -235 68.5t-88 187.5h219q5 -92 111 -92q41 0 65 16t24 43
q0 17 -14 29q-13 11 -50 24t-87.5 27.5t-63.5 19.5q-43 15 -71 29t-54 36.5t-38.5 55t-12.5 76.5q0 100 79.5 161.5t208.5 61.5q136 0 211.5 -60.5t77.5 -170.5z" />
    <glyph glyph-name="afii10055" unicode="&#x406;" horiz-adv-x="333" 
d="M276 712v-712h-218v712h218z" />
    <glyph glyph-name="afii10056" unicode="&#x407;" horiz-adv-x="333" 
d="M276 712v-712h-218v712h218zM369 907v-138h-175v138h175zM140 907v-138h-176v138h176z" />
    <glyph glyph-name="afii10057" unicode="&#x408;" horiz-adv-x="611" 
d="M559 712v-474q0 -125 -68.5 -190t-195.5 -65q-128 0 -195.5 69t-67.5 194v53h196v-21v-18.5v-20.5t1 -19t3.5 -20t6.5 -16t10.5 -14.5t16 -8t21.5 -3.5q28 0 41 16.5t13 53.5v484h218z" />
    <glyph glyph-name="afii10058" unicode="&#x409;" horiz-adv-x="1100" 
d="M1074 250q0 -118 -75 -184t-219 -66h-306v529h-128v-14q0 -178 -6 -235q-23 -237 -165 -282q-36 -11 -79 -11q-49 0 -88 16v169q17 -11 43 -11q18 0 31.5 9.5t22 29t13.5 40t7.5 52.5t3 55t0.5 59v306h563v-241h101q142 0 211.5 -57.5t69.5 -163.5zM862 241q0 70 -89 70
h-81v-148h80q90 0 90 78z" />
    <glyph glyph-name="afii10059" unicode="&#x40a;" horiz-adv-x="1100" 
d="M1074 250q0 -118 -75 -184t-219 -66h-306v285h-197v-285h-219v712h219v-241h197v241h218v-241h101q142 0 211.5 -57.5t69.5 -163.5zM862 240q0 70 -89 70h-81v-148h80q90 0 90 78z" />
    <glyph glyph-name="afii10060" unicode="&#x40b;" horiz-adv-x="857" 
d="M428 0h-223v529h-181v183h624v-183h-220v-93q12 5 50 10t57 5q51 0 90 -5t82 -22.5t71 -46.5t46.5 -80.5t18.5 -122.5v-174h-224v158q0 128 -104 128q-44 0 -87 -15v-271z" />
    <glyph glyph-name="afii10061" unicode="&#x40c;" horiz-adv-x="778" 
d="M747 712l-258 -277l299 -435h-273l-174 277l-64 -67v-210h-215v712h216l-1 -144q0 -16 -3 -109l203 253h270zM559 911l-178 -145h-131l98 145h211z" />
    <glyph glyph-name="afii10062" unicode="&#x40e;" horiz-adv-x="667" 
d="M211 245l-228 467h239l77 -208q23 -62 35 -123q15 75 33 123l77 208h239l-271 -582q-30 -65 -85.5 -106.5t-107.5 -41.5q-32 0 -79.5 7.5t-59.5 15.5v171q7 -6 32.5 -13.5t48.5 -7.5q24 0 42 13.5t18 38.5q0 17 -10 38zM144 907h108q6 -38 28.5 -51t57.5 -13
q37 0 55 14.5t25 49.5h105q-3 -83 -54 -126t-134 -43q-89 0 -136.5 40t-54.5 129z" />
    <glyph glyph-name="afii10145" unicode="&#x40f;" horiz-adv-x="759" 
d="M482 0v-166h-203v166h-221v712h219v-526h206v526h218v-712h-219z" />
    <glyph glyph-name="afii10017" unicode="&#x410;" horiz-adv-x="722" 
d="M469 712l262 -712h-221l-35 101h-229l-35 -101h-221l263 712h216zM427 254l-38 122q-13 43 -27 108q-16 -64 -30 -109q-15 -49 -39 -121h134z" />
    <glyph glyph-name="afii10018" unicode="&#x411;" horiz-adv-x="741" 
d="M378 297h-107v-131h123q46 0 72 13.5t26 52.5q0 41 -27 53t-87 12zM271 545v-94h160q38 0 73.5 -5.5t73 -21t64.5 -39t44.5 -62.5t17.5 -89q0 -128 -77 -181t-228 -53h-340v712h589v-167h-377z" />
    <glyph glyph-name="afii10019" unicode="&#x412;" horiz-adv-x="741" 
d="M59 712h359q253 0 253 -178q0 -90 -89 -143q124 -43 124 -175q0 -60 -22.5 -103.5t-62.5 -67.5t-86 -34.5t-102 -10.5h-374v712zM271 550v-110h123q31 0 48.5 14.5t17.5 39.5q0 56 -76 56h-113zM271 303v-134h135q83 0 83 66q0 68 -83 68h-135z" />
    <glyph glyph-name="afii10020" unicode="&#x413;" horiz-adv-x="611" 
d="M282 529v-529h-219v712h535v-183h-316z" />
    <glyph glyph-name="afii10021" unicode="&#x414;" horiz-adv-x="804" 
d="M161 712h546v-530h88v-348h-198v166h-395v-166h-199v348h73q41 77 63 202t22 264v64zM493 182v351h-135v-60q0 -62 -21 -154.5t-44 -136.5h200z" />
    <glyph glyph-name="afii10022" unicode="&#x415;" horiz-adv-x="704" 
d="M649 712v-173h-375v-89h340v-165h-340v-104h385v-181h-600v712h590z" />
    <glyph glyph-name="afii10024" unicode="&#x416;" horiz-adv-x="1137" 
d="M461 218l-51 61l-135 -279h-266l250 452l-223 260h251l174 -227v227h218v-227l174 227h251l-223 -260l249 -452h-266l-135 279l-50 -61v-218h-218v218z" />
    <glyph glyph-name="afii10025" unicode="&#x417;" horiz-adv-x="676" 
d="M651 225q0 -122 -90 -181.5t-226 -59.5q-149 0 -235 68.5t-88 187.5h219q5 -90 100 -90q50 0 77.5 22.5t27.5 60.5q0 24 -9.5 39t-28 21.5t-35 8.5t-41.5 2q-8 0 -23 -0.5t-23 -0.5v136q8 -1 35 -1h32.5t30 3.5t31.5 9.5t19 19.5t9 33.5q0 30 -25.5 48t-68.5 18
t-70.5 -19t-28.5 -51h-205q1 109 84 170t224 61q131 0 208.5 -51t77.5 -148q0 -46 -30 -89t-75 -57q52 -12 89.5 -56.5t37.5 -104.5z" />
    <glyph glyph-name="afii10026" unicode="&#x418;" horiz-adv-x="759" 
d="M701 712v-712h-208v268q0 112 6 175l-207 -443h-234v712h209v-270q0 -81 -5 -169l206 439h233z" />
    <glyph glyph-name="afii10027" unicode="&#x419;" horiz-adv-x="759" 
d="M189 907h108q6 -38 28.5 -51t57.5 -13q37 0 55 14.5t25 49.5h105q-3 -83 -54 -126t-134 -43q-89 0 -136.5 40t-54.5 129zM701 712v-712h-208v268q0 112 6 175l-207 -443h-234v712h209v-270q0 -81 -5 -169l206 439h233z" />
    <glyph glyph-name="afii10028" unicode="&#x41a;" horiz-adv-x="778" 
d="M747 712l-258 -277l299 -435h-273l-174 277l-64 -67v-210h-215v712h216l-1 -144q0 -16 -3 -109l203 253h270z" />
    <glyph glyph-name="afii10029" unicode="&#x41b;" horiz-adv-x="779" 
d="M144 712h563v-712h-217v529h-131v-42q0 -193 -17 -279q-53 -216 -231 -221q-48 0 -87 16v169q16 -11 43 -11q18 0 31.5 9.5t21.5 29t13 40t7.5 52t3 55t0.5 59.5v306z" />
    <glyph glyph-name="afii10030" unicode="&#x41c;" horiz-adv-x="944" 
d="M885 712v-712h-205v107q0 189 8 405l-134 -512h-163l-135 512q7 -162 8 -375l1 -137h-205v712h313l46 -185q36 -149 55 -270q15 86 60 275l44 180h307z" />
    <glyph glyph-name="afii10031" unicode="&#x41d;" horiz-adv-x="759" 
d="M701 712v-712h-218v281h-206v-281h-219v712h219v-239h206v239h218z" />
    <glyph glyph-name="afii10032" unicode="&#x41e;" horiz-adv-x="796" 
d="M403 731q160 0 258 -103.5t98 -271.5q0 -167 -98.5 -270t-259.5 -103q-164 0 -264 102.5t-100 271.5t100 271.5t266 102.5zM400 556q-66 0 -103.5 -52t-37.5 -144q0 -95 37 -147.5t105 -52.5q67 0 102 52.5t35 153.5q0 89 -36.5 139.5t-101.5 50.5z" />
    <glyph glyph-name="afii10033" unicode="&#x41f;" horiz-adv-x="759" 
d="M701 712v-712h-218v529h-206v-529h-219v712h643z" />
    <glyph glyph-name="afii10034" unicode="&#x420;" horiz-adv-x="704" 
d="M58 712h310q311 0 311 -253q0 -118 -73.5 -178.5t-194.5 -60.5h-136v-220h-217v712zM275 537v-151h105q90 0 90 75q0 76 -94 76h-101z" />
    <glyph glyph-name="afii10035" unicode="&#x421;" horiz-adv-x="759" 
d="M727 281q-9 -142 -101.5 -220t-228.5 -78q-161 0 -259 107t-98 268q0 159 100.5 265.5t260.5 106.5q130 0 222.5 -80.5t100.5 -200.5h-212q-9 48 -39 74t-76 26q-48 0 -80.5 -30.5t-44.5 -71.5t-12 -89q0 -89 36.5 -140t100.5 -51q98 0 115 114h215z" />
    <glyph glyph-name="afii10036" unicode="&#x422;" 
d="M642 712v-183h-200v-529h-218v529h-199v183h617z" />
    <glyph glyph-name="afii10037" unicode="&#x423;" horiz-adv-x="667" 
d="M211 245l-228 467h239l77 -208q23 -62 35 -123q15 75 33 123l77 208h239l-271 -582q-30 -65 -85.5 -106.5t-107.5 -41.5q-32 0 -79.5 7.5t-59.5 15.5v171q7 -6 32.5 -13.5t48.5 -7.5q24 0 42 13.5t18 38.5q0 17 -10 38z" />
    <glyph glyph-name="afii10038" unicode="&#x424;" horiz-adv-x="937" 
d="M900 361q0 -130 -85 -211t-238 -81v-69h-214v69q-148 0 -237 81.5t-89 208.5q0 52 18.5 100.5t56 90t102.5 66.5t149 25v71h214v-71q150 0 236.5 -80t86.5 -200zM682 359q0 48 -25.5 88t-84.5 40v-262q33 0 56 13.5t34 35.5t15.5 42.5t4.5 42.5zM368 224v263
q-59 0 -86 -39.5t-27 -88.5q0 -55 27 -95t86 -40z" />
    <glyph glyph-name="afii10039" unicode="&#x425;" horiz-adv-x="741" 
d="M725 712l-227 -334l255 -378h-264l-69 116q-28 47 -52 102q-33 -67 -57 -105l-68 -113h-253l259 378l-235 334h256l54 -94q26 -44 53 -105q27 57 47 94l58 105h243z" />
    <glyph glyph-name="afii10040" unicode="&#x426;" horiz-adv-x="778" 
d="M684 712v-526h88v-352h-203v166h-518v712h219v-526h196v526h218z" />
    <glyph glyph-name="afii10041" unicode="&#x427;" horiz-adv-x="722" 
d="M338 258q-157 0 -225 66t-68 213v175h217v-145q0 -71 20 -105t77 -34q22 0 51.5 5.5t38.5 9.5v269h217v-712h-217v275q-9 -4 -52 -10.5t-59 -6.5z" />
    <glyph glyph-name="afii10042" unicode="&#x428;" horiz-adv-x="1095" 
d="M58 0v712h214v-527h168v527h215v-527h168v527h214v-712h-979z" />
    <glyph glyph-name="afii10043" unicode="&#x429;" horiz-adv-x="1129" 
d="M1119 -166h-203v166h-864v712h214v-527h168v527h215v-527h168v527h214v-526h88v-352z" />
    <glyph glyph-name="afii10044" unicode="&#x42a;" horiz-adv-x="840" 
d="M198 529h-183v183h401v-222h121q142 0 211.5 -62.5t69.5 -177.5q0 -118 -75 -184t-219 -66h-326v529zM606 248q0 80 -89 80h-101v-158h100q90 0 90 78z" />
    <glyph glyph-name="afii10045" unicode="&#x42b;" horiz-adv-x="1011" 
d="M276 712v-222h91q142 0 211.5 -62.5t69.5 -177.5q0 -118 -75 -184t-219 -66h-296v712h218zM276 328v-158h70q90 0 90 78q0 80 -89 80h-71zM953 712v-712h-218v712h218z" />
    <glyph glyph-name="afii10046" unicode="&#x42c;" horiz-adv-x="704" 
d="M276 712v-222h121q142 0 211.5 -62.5t69.5 -177.5q0 -118 -75 -184t-219 -66h-326v712h218zM276 328v-158h100q90 0 90 78q0 80 -89 80h-101z" />
    <glyph glyph-name="afii10047" unicode="&#x42d;" horiz-adv-x="759" 
d="M719 358q0 -161 -98 -268t-259 -107q-135 0 -227 76.5t-103 216.5h216q18 -109 114 -109q49 0 82.5 31t46.5 87h-193v158h189q-31 106 -125 106q-90 0 -113 -84h-212q14 116 103.5 190.5t217.5 74.5q160 0 260.5 -106.5t100.5 -265.5z" />
    <glyph glyph-name="afii10048" unicode="&#x42e;" horiz-adv-x="1094" 
d="M384 283h-107v-283h-219v712h219v-246h114q28 123 116 194t216 71q150 0 242 -103.5t92 -271.5q0 -167 -92.5 -270t-243.5 -103q-135 0 -226 81t-111 219zM835 366q0 89 -30.5 139.5t-84.5 50.5q-55 0 -86.5 -52.5t-31.5 -143.5q0 -95 31.5 -147.5t87.5 -52.5
q55 0 84.5 52.5t29.5 153.5z" />
    <glyph glyph-name="afii10049" unicode="&#x42f;" horiz-adv-x="741" 
d="M683 0h-214v258h-59l-148 -258h-266l204 300q-59 22 -97.5 75.5t-38.5 117.5q0 219 293 219h326v-712zM469 413v134h-111q-83 0 -83 -68q0 -66 83 -66h111z" />
    <glyph glyph-name="afii10065" unicode="&#x430;" horiz-adv-x="611" 
d="M583 0h-200q-7 26 -8 48q-65 -65 -165 -65q-88 0 -137.5 43t-49.5 119q0 39 16 68t32.5 44.5t56.5 28t57 15.5t66 10q2 1 3.5 1t4 0.5t4.5 0.5q5 1 24 2.5t29.5 3.5t25 7t21.5 15t7 24q0 45 -65 45q-36 0 -52 -11t-21 -41h-185q7 173 258 173q199 0 244 -96
q14 -29 14 -94q0 -31 -1 -91.5t-1 -102.5q0 -103 22 -147zM371 235q-22 -15 -92 -30q-54 -12 -54 -54q0 -24 15 -38t41 -14q54 0 78 40q12 20 12 65v31z" />
    <glyph glyph-name="afii10066" unicode="&#x431;" horiz-adv-x="630" 
d="M594 253q0 -119 -77 -193.5t-199 -74.5q-135 0 -210 88q-66 76 -66 263q0 136 42 224.5t143 126.5q31 12 70 17.5t64 12t40 23.5h182q-2 -42 -18.5 -73.5t-32.5 -48t-58.5 -31t-61 -18.5t-74.5 -13q-15 -3 -22 -4q-136 -23 -152 -132h3q53 96 193 96q99 0 166.5 -73.5
t67.5 -189.5zM396 253q0 121 -80 121q-77 0 -77 -123q0 -124 79 -124q78 0 78 126z" />
    <glyph glyph-name="afii10067" unicode="&#x432;" horiz-adv-x="619" 
d="M237 406v-86h77q57 0 57 45q0 41 -54 41h-80zM374 0h-329v516h314q109 0 159.5 -30.5t50.5 -97.5q0 -78 -75 -109v-2q40 -8 67.5 -41t27.5 -77q0 -159 -215 -159zM322 113q25 0 41.5 14t16.5 39q0 49 -67 49h-76v-102h85z" />
    <glyph glyph-name="afii10068" unicode="&#x433;" horiz-adv-x="500" 
d="M59 516h430v-149h-233v-367h-197v516z" />
    <glyph glyph-name="afii10069" unicode="&#x434;" horiz-adv-x="648" 
d="M641 -137h-177v137h-286v-137h-174v286h57q68 97 68 367h454v-367h58v-286zM388 149v224h-89v-6q0 -46 -11.5 -114.5t-35.5 -103.5h136z" />
    <glyph glyph-name="afii10070" unicode="&#x435;" horiz-adv-x="630" 
d="M590 155q-23 -82 -99.5 -126t-167.5 -44q-126 0 -209 71t-83 196q0 121 80.5 199t204.5 78q130 0 207.5 -81t77.5 -218v-15h-380q2 -49 28.5 -76t72.5 -27q55 0 83 43h185zM408 314q-8 88 -91 88q-80 0 -95 -88h186z" />
    <glyph glyph-name="afii10072" unicode="&#x436;" horiz-adv-x="906" 
d="M359 153l-30 32l-100 -185h-236l214 305l-190 211h229l111 -167h2v167h189v-167h2l110 167h230l-190 -211l213 -305h-236l-100 185l-29 -32v-153h-189v153z" />
    <glyph glyph-name="afii10073" unicode="&#x437;" horiz-adv-x="600" 
d="M24 179h188q0 -34 24 -55.5t59 -21.5q34 0 51.5 17.5t17.5 42.5q0 30 -20 40.5t-61 10.5q-21 0 -33 -1v104q55 0 78 10.5t23 41.5q0 19 -16 30.5t-41 11.5q-22 0 -40 -13t-22 -39h-186q0 87 71 129t188 42t180.5 -39t63.5 -107q0 -35 -21 -62.5t-55 -41.5q44 -8 70 -39.5
t26 -70.5q0 -90 -74.5 -137t-210.5 -47q-118 0 -189 48.5t-71 142.5v3z" />
    <glyph glyph-name="afii10074" unicode="&#x438;" horiz-adv-x="648" 
d="M397 516h197v-516h-189v275h-3l-150 -275h-197v516h189v-268h3z" />
    <glyph glyph-name="afii10075" unicode="&#x439;" horiz-adv-x="648" 
d="M492 712q-3 -74 -50 -115.5t-118 -41.5q-77 0 -123.5 39t-51.5 118h91q5 -55 84 -55q70 0 78 55h90zM594 0h-189v270h-3l-150 -270h-197v516h189v-263h3l150 263h197v-516z" />
    <glyph glyph-name="afii10076" unicode="&#x43a;" horiz-adv-x="611" 
d="M597 516l-182 -202l207 -314h-231l-101 175l-41 -46v-129h-197v516h197v-170h3l128 170h217z" />
    <glyph glyph-name="afii10077" unicode="&#x43b;" horiz-adv-x="630" 
d="M574 0h-193v367h-98q0 -137 -16 -211q-18 -89 -63.5 -127.5t-129.5 -38.5q-13 0 -30.5 3.5t-28.5 6.5l-11 4v141q19 -7 32 -7t22.5 5.5t16 17t10.5 22t5.5 28t2.5 27.5t1.5 27.5t0.5 21.5q3 69 3 229h476v-516z" />
    <glyph glyph-name="afii10078" unicode="&#x43c;" horiz-adv-x="800" 
d="M235 323h-3l5 -323h-183v516h247l98 -301h1l97 301h248v-516h-183l5 323h-3l-106 -323h-117z" />
    <glyph glyph-name="afii10079" unicode="&#x43d;" horiz-adv-x="648" 
d="M397 346v170h197v-516h-197v197h-145v-197h-197v516h197v-170h145z" />
    <glyph glyph-name="afii10080" unicode="&#x43e;" horiz-adv-x="630" 
d="M317 531q125 0 203 -75t78 -196q0 -122 -79 -198.5t-204 -76.5q-126 0 -205 76t-79 197t79.5 197t206.5 76zM313 388q-84 0 -84 -130q0 -131 86 -131q85 0 85 133q0 128 -87 128z" />
    <glyph glyph-name="afii10081" unicode="&#x43f;" horiz-adv-x="648" 
d="M594 516v-516h-197v367h-145v-367h-197v516h539z" />
    <glyph glyph-name="afii10082" unicode="&#x440;" horiz-adv-x="648" 
d="M245 516v-56q53 69 148 69q101 0 162.5 -75.5t61.5 -199.5q0 -122 -59 -194.5t-158 -72.5q-86 0 -148 68v-221h-197v682h190zM332 371q-86 0 -86 -118q0 -116 87 -116q86 0 86 117t-87 117z" />
    <glyph glyph-name="afii10083" unicode="&#x441;" horiz-adv-x="611" 
d="M585 207q-14 -104 -85.5 -162t-184.5 -58q-125 0 -203.5 74t-78.5 193q0 123 78 198.5t205 75.5q112 0 184.5 -57t80.5 -150h-189q-4 31 -24.5 49t-49.5 18q-87 0 -87 -135q0 -122 86 -122q67 0 79 76h189z" />
    <glyph glyph-name="afii10084" unicode="&#x442;" horiz-adv-x="556" 
d="M180 367h-165v149h526v-149h-165v-367h-196v367z" />
    <glyph glyph-name="afii10085" unicode="&#x443;" horiz-adv-x="556" 
d="M567 516l-189 -528q-31 -87 -75.5 -121t-135.5 -34h-129v158q21 -1 46 -1q16 0 26 1t23 4.5t20 13t7 24.5q0 10 -6 25l-168 458h210l58 -204q14 -50 25 -120q18 92 28 126l57 198h203z" />
    <glyph glyph-name="afii10086" unicode="&#x444;" horiz-adv-x="900" 
d="M869 262q0 -130 -60 -203.5t-156 -73.5q-36 0 -65 15.5t-39 31.5h-3v-206h-191v206h-3q-10 -16 -39 -31.5t-65 -15.5q-96 0 -156 73.5t-60 203.5q0 118 53.5 193t153.5 75q36 0 69 -17.5t44 -39.5h3v239h191v-239h3q11 22 44 39.5t69 17.5q100 0 153.5 -75.5t53.5 -192.5
zM677 267q0 115 -79 115q-16 0 -31.5 -8t-20.5 -20v-190q6 -12 21 -21t29 -9q81 0 81 133zM355 164v190q-5 12 -20.5 20t-31.5 8q-79 0 -79 -115q0 -133 81 -133q14 0 29 9t21 21z" />
    <glyph glyph-name="afii10087" unicode="&#x445;" horiz-adv-x="556" 
d="M546 516l-161 -244l183 -272h-217l-38 62q-16 26 -35 75q-22 -51 -38 -77l-35 -60h-218l181 272l-162 244h216l27 -48q21 -40 31 -62q23 52 33 70l23 40h210z" />
    <glyph glyph-name="afii10088" unicode="&#x446;" horiz-adv-x="667" 
d="M655 -137h-180v137h-420v516h197v-365h138v365h197v-365h68v-288z" />
    <glyph glyph-name="afii10089" unicode="&#x447;" horiz-adv-x="611" 
d="M558 516v-516h-183v203q-85 -30 -159 -30q-178 0 -178 206v137h197v-112q0 -52 16.5 -72.5t53.5 -20.5q32 0 56 16v189h197z" />
    <glyph glyph-name="afii10090" unicode="&#x448;" horiz-adv-x="920" 
d="M54 0v516h193v-365h117v365h192v-365h117v365h193v-516h-812z" />
    <glyph glyph-name="afii10091" unicode="&#x449;" horiz-adv-x="940" 
d="M49 0v516h193v-365h117v365h192v-365h117v365h193v-365h67v-288h-180v137h-699z" />
    <glyph glyph-name="afii10092" unicode="&#x44a;" horiz-adv-x="686" 
d="M665 181q0 -85 -53 -133t-158 -48h-314v367h-134v149h330v-161h124q103 0 154 -45.5t51 -128.5zM462 177q0 58 -65 58h-60v-115h59q66 0 66 57z" />
    <glyph glyph-name="afii10093" unicode="&#x44b;" horiz-adv-x="853" 
d="M801 0h-192v516h192v-516zM556 181q0 -85 -53 -133t-157 -48h-294v516h192v-161h107q104 0 154.5 -45.5t50.5 -128.5zM359 177q0 57 -66 57h-49v-114h49q66 0 66 57z" />
    <glyph glyph-name="afii10094" unicode="&#x44c;" horiz-adv-x="600" 
d="M578 181q0 -85 -53 -133t-157 -48h-314v516h197v-161h122q104 0 154.5 -45.5t50.5 -128.5zM376 177q0 57 -66 57h-59v-114h59q66 0 66 57z" />
    <glyph glyph-name="afii10095" unicode="&#x44d;" horiz-adv-x="611" 
d="M578 254q0 -119 -78.5 -193t-203.5 -74q-111 0 -181.5 55.5t-87.5 155.5h190q13 -67 77 -67q71 0 83 84h-123v99h120q-18 74 -81 74q-28 0 -47.5 -15.5t-25.5 -43.5h-189q10 90 82 144.5t182 54.5q127 0 205 -75.5t78 -198.5z" />
    <glyph glyph-name="afii10096" unicode="&#x44e;" horiz-adv-x="888" 
d="M593 531q117 0 190.5 -75t73.5 -196q0 -122 -74 -198.5t-192 -76.5q-104 0 -174.5 59t-87.5 158h-77v-202h-197v516h197v-175h83q23 88 92 139t166 51zM589 388q-70 0 -70 -130q0 -131 72 -131q71 0 71 133q0 128 -73 128z" />
    <glyph glyph-name="afii10097" unicode="&#x44f;" horiz-adv-x="611" 
d="M329 176l-93 -176h-236l133 194q-54 23 -78.5 67.5t-24.5 88.5q0 76 56.5 121t168.5 45h301v-516h-197v176h-30zM359 290v111h-55q-70 0 -70 -55q0 -56 69 -56h56z" />
    <glyph glyph-name="afii10071" unicode="&#x451;" horiz-adv-x="630" 
d="M590 155q-23 -82 -99.5 -126t-167.5 -44q-126 0 -209 71t-83 196q0 121 80.5 199t204.5 78q130 0 207.5 -81t77.5 -218v-15h-380q2 -49 28.5 -76t72.5 -27q55 0 83 43h185zM408 314q-8 88 -91 88q-80 0 -95 -88h186zM519 712v-138h-175v138h175zM290 712v-138h-176v138
h176z" />
    <glyph glyph-name="afii10099" unicode="&#x452;" horiz-adv-x="630" 
d="M584 99q0 -44 -3.5 -78.5t-16 -73t-33 -63.5t-57 -42t-86.5 -17q-36 0 -89 3v145q53 0 70.5 32t17.5 94v4q0 97 -69 97q-43 0 -59.5 -27t-16.5 -80v-93h-197v409h-45v120h45v183h197v-183h196v-120h-196v-128q62 80 150 80q192 0 192 -221v-41z" />
    <glyph glyph-name="afii10100" unicode="&#x453;" horiz-adv-x="500" 
d="M59 516h430v-149h-233v-367h-197v516zM437 712l-178 -145h-131l98 145h211z" />
    <glyph glyph-name="afii10101" unicode="&#x454;" horiz-adv-x="611" 
d="M357 215h-123q12 -84 83 -84q64 0 77 67h190q-17 -100 -87.5 -155.5t-181.5 -55.5q-125 0 -203.5 74t-78.5 193q0 123 78 198.5t205 75.5q110 0 182 -54.5t82 -144.5h-189q-6 28 -25.5 43.5t-47.5 15.5q-63 0 -81 -74h120v-99z" />
    <glyph glyph-name="afii10102" unicode="&#x455;" horiz-adv-x="574" 
d="M533 365h-179q-5 28 -20 38t-50 10q-54 0 -54 -31q0 -11 8.5 -19.5t25.5 -14t29 -8t31 -5t20 -2.5q36 -7 59.5 -12.5t53.5 -18.5t48 -29t30.5 -43t12.5 -62q0 -85 -69 -133t-191 -48q-247 0 -262 185h187q4 -32 22.5 -46.5t56.5 -14.5q29 0 45.5 11t16.5 30t-16 27
t-61 18q-15 3 -24 5q-102 22 -136 39q-80 39 -80 127q0 79 64.5 121t186.5 42q105 0 171 -36.5t74 -129.5z" />
    <glyph glyph-name="afii10103" unicode="&#x456;" horiz-adv-x="315" 
d="M256 712v-138h-198v138h198zM256 516v-516h-198v516h198z" />
    <glyph glyph-name="afii10104" unicode="&#x457;" horiz-adv-x="315" 
d="M256 516v-516h-198v516h198zM360 712v-138h-175v138h175zM131 712v-138h-176v138h176z" />
    <glyph glyph-name="afii10105" unicode="&#x458;" horiz-adv-x="315" 
d="M259 516v-504q0 -56 -12.5 -92t-40 -55t-62.5 -25.5t-89 -6.5q-14 0 -41.5 0.5t-41.5 0.5v157q6 -1 12 -1q49 0 62.5 9.5t13.5 53.5v463h199zM259 712v-141h-199v141h199z" />
    <glyph glyph-name="afii10106" unicode="&#x459;" horiz-adv-x="902" 
d="M882 181q0 -85 -53 -133t-158 -48h-294v367h-87q0 -137 -16 -211q-18 -88 -65.5 -127t-132.5 -39q-13 0 -30.5 3.5t-28.5 6.5l-11 4v141q18 -7 31 -7t22.5 5.5t16 17t10.5 22t5.5 28t2.5 27.5t1.5 27.5t0.5 21.5q3 69 3 229h475v-161h103q103 0 154 -45.5t51 -128.5z
M679 177q0 58 -65 58h-40v-115h39q66 0 66 57z" />
    <glyph glyph-name="afii10107" unicode="&#x45a;" horiz-adv-x="902" 
d="M882 175q0 -85 -52.5 -130t-158.5 -45h-294v224h-125v-224h-197v516h197v-172h125v172h197v-172h103q205 0 205 -169zM679 171q0 31 -17 42t-48 11h-40v-104h39q31 0 48.5 10t17.5 41z" />
    <glyph glyph-name="afii10108" unicode="&#x45b;" horiz-adv-x="630" 
d="M584 0h-197v103q0 97 -69 97q-43 0 -59.5 -27t-16.5 -80v-93h-197v409h-45v120h45v183h197v-183h196v-120h-196v-128q62 80 150 80q192 0 192 -221v-140z" />
    <glyph glyph-name="afii10109" unicode="&#x45c;" horiz-adv-x="611" 
d="M597 516l-182 -202l207 -314h-231l-101 175l-41 -46v-129h-197v516h197v-170h3l128 170h217zM492 712l-178 -145h-131l98 145h211z" />
    <glyph glyph-name="afii10110" unicode="&#x45e;" horiz-adv-x="556" 
d="M567 516l-189 -528q-31 -87 -75.5 -121t-135.5 -34h-129v158q21 -1 46 -1q16 0 26 1t23 4.5t20 13t7 24.5q0 10 -6 25l-168 458h210l58 -204q14 -50 25 -120q18 92 28 126l57 198h203zM109 712h91q5 -55 84 -55q70 0 78 55h90q-3 -74 -50 -115.5t-118 -41.5
q-77 0 -123.5 39t-51.5 118z" />
    <glyph glyph-name="afii10193" unicode="&#x45f;" horiz-adv-x="648" 
d="M415 0v-137h-180v137h-180v516h197v-365h145v365h197v-516h-179z" />
    <glyph glyph-name="afii10050" unicode="&#x490;" horiz-adv-x="611" 
d="M270 529v-529h-219v712h359v160h186v-343h-326z" />
    <glyph glyph-name="afii10098" unicode="&#x491;" horiz-adv-x="500" 
d="M52 516h273v131h162v-280h-238v-367h-197v516z" />
    <glyph glyph-name="endash" unicode="&#x2013;" horiz-adv-x="500" 
d="M500 351v-169h-500v169h500z" />
    <glyph glyph-name="emdash" unicode="&#x2014;" horiz-adv-x="1000" 
d="M1000 351v-169h-1000v169h1000z" />
    <glyph glyph-name="quoteleft" unicode="&#x2018;" horiz-adv-x="296" 
d="M249 718v-92q-80 -12 -87 -93h87v-205h-203v161q0 111 49.5 165.5t153.5 63.5z" />
    <glyph glyph-name="quoteright" unicode="&#x2019;" horiz-adv-x="296" 
d="M249 551q0 -111 -49.5 -165.5t-153.5 -63.5v92q80 12 87 93h-87v205h203v-161z" />
    <glyph glyph-name="quotesinglbase" unicode="&#x201a;" horiz-adv-x="296" 
d="M249 43q0 -111 -49.5 -165.5t-153.5 -63.5v92q80 12 87 93h-87v205h203v-161z" />
    <glyph glyph-name="quotedblleft" unicode="&#x201c;" horiz-adv-x="519" 
d="M224 718v-86q-41 -9 -58.5 -32t-19.5 -65h78v-205h-176v168q0 98 40 151t136 69zM466 718v-86q-41 -9 -58.5 -32t-19.5 -65h78v-205h-176v168q0 98 40 151t136 69z" />
    <glyph glyph-name="quotedblright" unicode="&#x201d;" horiz-adv-x="519" 
d="M468 544q0 -98 -40 -151t-136 -69v86q41 9 58.5 32t19.5 65h-78v205h176v-168zM226 544q0 -98 -40 -151t-136 -69v86q41 9 58.5 32t19.5 65h-78v205h176v-168z" />
    <glyph glyph-name="quotedblbase" unicode="&#x201e;" horiz-adv-x="519" 
d="M470 36q0 -98 -40 -151t-136 -69v86q41 9 58.5 32t19.5 65h-78v205h176v-168zM228 36q0 -98 -40 -151t-136 -69v86q41 9 58.5 32t19.5 65h-78v205h176v-168z" />
    <glyph glyph-name="dagger" unicode="&#x2020;" horiz-adv-x="667" 
d="M606 528v-170h-176v-531h-194v531h-175v170h175v184h194v-184h176z" />
    <glyph glyph-name="daggerdbl" unicode="&#x2021;" horiz-adv-x="667" 
d="M606 532v-164h-176v-195h176v-163h-176v-182h-193v182h-176v163h176v195h-176v164h176v180h193v-180h176z" />
    <glyph glyph-name="bullet" unicode="&#x2022;" horiz-adv-x="500" 
d="M250 536q75 1 128 -52t53 -128t-52.5 -128t-128.5 -53q-75 0 -128 53t-53 128t53 127.5t128 52.5z" />
    <glyph glyph-name="ellipsis" unicode="&#x2026;" horiz-adv-x="1000" 
d="M270 205v-205h-206v205h206zM603 205v-205h-206v205h206zM936 205v-205h-206v205h206z" />
    <glyph glyph-name="perthousand" unicode="&#x2030;" horiz-adv-x="1167" 
d="M666 709l-407 -729h-110l407 729h110zM211 700q143 0 143 -174q0 -83 -37.5 -128t-107.5 -45q-69 0 -106.5 45t-37.5 127q0 85 37.5 130t108.5 45zM210 624q-22 0 -30.5 -23t-8.5 -83q0 -87 38 -87q22 0 30.5 22t8.5 78q0 52 -8.5 72.5t-29.5 20.5zM612 332
q143 0 143 -174q0 -83 -37.5 -128t-107.5 -45q-69 0 -106.5 45t-37.5 127q0 85 37.5 130t108.5 45zM611 256q-22 0 -30.5 -23t-8.5 -83q0 -87 38 -87q22 0 30.5 22t8.5 78q0 52 -8.5 72.5t-29.5 20.5zM957 332q143 0 143 -174q0 -83 -37.5 -128t-107.5 -45q-69 0 -106.5 45
t-37.5 127q0 85 37.5 130t108.5 45zM956 256q-22 0 -30.5 -23t-8.5 -83q0 -87 38 -87q22 0 30.5 22t8.5 78q0 52 -8.5 72.5t-29.5 20.5z" />
    <glyph glyph-name="guilsinglleft" unicode="&#x2039;" horiz-adv-x="241" 
d="M200 481v-153l-77 -62l77 -62v-155l-160 127v177z" />
    <glyph glyph-name="guilsinglright" unicode="&#x203a;" horiz-adv-x="241" 
d="M40 483l161 -128v-179l-161 -127v150l78 65l-78 63v156z" />
    <glyph glyph-name="afii61352" unicode="&#x2116;" horiz-adv-x="1167" 
d="M267 693l224 -385l-9 161v224h214v-693h-209l-224 372l9 -162v-210h-214v693h209zM752 303q0 79 49.5 122.5t132.5 43.5q86 0 135.5 -43.5t49.5 -116.5q0 -81 -51.5 -123.5t-132.5 -42.5t-132 41.5t-51 118.5zM1109 0h-348v113h348v-113zM884 309q0 -79 51 -79t51 79
q0 33 -14 52.5t-36 19.5q-26 0 -39 -21t-13 -51z" />
    <glyph glyph-name="trademark" unicode="&#x2122;" horiz-adv-x="1000" 
d="M157 354v270h-97v88h311v-88h-98v-270h-116zM423 354v358h161l66 -207l67 207h161v-358h-104v269l-87 -269h-73l-87 269v-269h-104z" />
    <glyph glyph-name="Delta" unicode="&#x2206;" horiz-adv-x="714" 
d="M428 712l275 -712h-692l254 712h163zM213 140h280l-145 405z" />
    <glyph glyph-name="radical" unicode="&#x221a;" horiz-adv-x="600" 
d="M612 786l-213 -1000h-172l-134 293l-57 -26l-53 114l207 86l100 -241l147 774h175z" />
    <glyph glyph-name="infinity" unicode="&#x221e;" horiz-adv-x="873" 
d="M627 51q-104 0 -190 106q-43 -51 -85.5 -78t-101.5 -27q-94 0 -149.5 59t-55.5 151t54 149.5t146 57.5q62 0 105.5 -29t86.5 -83q43 55 85 83.5t106 28.5q93 0 146.5 -58t53.5 -148q0 -92 -54 -152t-147 -60zM623 328q-47 0 -102 -70q53 -66 105 -66q29 0 46 19.5
t17 49.5t-18 48.5t-48 18.5zM246 328q-28 0 -45.5 -20t-17.5 -48q0 -30 17.5 -48.5t47.5 -18.5q51 0 103 65q-55 70 -105 70z" />
    <glyph glyph-name="approxequal" unicode="&#x2248;" horiz-adv-x="600" 
d="M97 273h-96q28 226 167 226q49 0 112 -24q118 -46 149 -46q29 0 46 14.5t28 55.5h97q-3 -35 -14 -72t-30.5 -73t-52 -58.5t-72.5 -22.5q-48 0 -141 35q-8 3 -25.5 10t-26 10t-22 7.5t-25 6t-22.5 1.5q-28 0 -45 -15.5t-27 -54.5zM97 28h-96q28 226 167 226q49 0 112 -24
q118 -46 149 -46q29 0 46 14.5t28 55.5h97q-3 -35 -14 -72t-30.5 -73t-52 -58.5t-72.5 -22.5q-48 0 -141 35q-8 3 -25.5 10t-26 10t-22 7.5t-25 6t-22.5 1.5q-28 0 -45 -15.5t-27 -54.5z" />
    <glyph glyph-name="notequal" unicode="&#x2260;" horiz-adv-x="600" 
d="M21 234h186l33 67h-219v153h295l80 161l128 -63l-49 -98h105v-153h-181l-33 -67h214v-152h-289l-86 -173l-128 63l55 110h-111v152z" />
    <glyph glyph-name="lessequal" unicode="&#x2264;" horiz-adv-x="600" 
d="M29 288v145l540 155v-160l-317 -67l317 -78v-160zM29 97h540v-162h-540v162z" />
    <glyph glyph-name="greaterequal" unicode="&#x2265;" horiz-adv-x="600" 
d="M569 288l-540 -165v160l317 78l-317 67v160l540 -155v-145zM569 -65h-540v162h540v-162z" />
    <glyph glyph-name="hyphenminus" unicode="&#xe000;" horiz-adv-x="407" 
d="M360 352v-170h-313v170h313z" />
    <glyph glyph-name="nbspace" unicode="&#xe001;" horiz-adv-x="334" 
 />
    <hkern u1="&#x2d;" u2="&#x442;" k="52" />
    <hkern u1="&#x2f;" u2="&#x44f;" k="48" />
    <hkern u1="&#x2f;" u2="&#x447;" k="48" />
    <hkern u1="&#x2f;" u2="&#x441;" k="72" />
    <hkern u1="&#x2f;" u2="&#x43e;" k="72" />
    <hkern u1="&#x2f;" u2="&#x43c;" k="48" />
    <hkern u1="&#x2f;" u2="&#x43b;" k="48" />
    <hkern u1="&#x2f;" u2="&#x43a;" k="48" />
    <hkern u1="&#x2f;" u2="&#x437;" k="72" />
    <hkern u1="&#x2f;" u2="&#x434;" k="48" />
    <hkern u1="&#x2f;" u2="&#x431;" k="48" />
    <hkern u1="&#x2f;" u2="&#x423;" k="-24" />
    <hkern u1="&#x2f;" u2="&#x41e;" k="24" />
    <hkern u1="&#x2f;" u2="&#x41b;" k="24" />
    <hkern u1="A" u2="&#x2019;" k="74" />
    <hkern u1="A" u2="y" k="18" />
    <hkern u1="A" u2="w" k="18" />
    <hkern u1="A" u2="v" k="18" />
    <hkern u1="A" u2="Y" k="74" />
    <hkern u1="A" u2="W" k="37" />
    <hkern u1="A" u2="V" k="30" />
    <hkern u1="A" u2="T" k="68" />
    <hkern u1="F" u2="A" k="55" />
    <hkern u1="F" u2="&#x2e;" k="129" />
    <hkern u1="F" u2="&#x2c;" k="129" />
    <hkern u1="L" u2="&#x2019;" k="111" />
    <hkern u1="L" u2="y" k="37" />
    <hkern u1="L" u2="Y" k="111" />
    <hkern u1="L" u2="W" k="55" />
    <hkern u1="L" u2="V" k="92" />
    <hkern u1="L" u2="T" k="129" />
    <hkern u1="P" u2="A" k="74" />
    <hkern u1="P" u2="&#x2e;" k="129" />
    <hkern u1="P" u2="&#x2c;" k="129" />
    <hkern u1="R" u2="Y" k="37" />
    <hkern u1="R" u2="W" k="18" />
    <hkern u1="R" u2="V" k="4" />
    <hkern u1="R" u2="T" k="18" />
    <hkern u1="T" u2="y" k="111" />
    <hkern u1="T" u2="w" k="111" />
    <hkern u1="T" u2="u" k="92" />
    <hkern u1="T" u2="s" k="111" />
    <hkern u1="T" u2="r" k="92" />
    <hkern u1="T" u2="o" k="111" />
    <hkern u1="T" u2="e" k="111" />
    <hkern u1="T" u2="c" k="111" />
    <hkern u1="T" u2="a" k="111" />
    <hkern u1="T" u2="A" k="74" />
    <hkern u1="T" u2="&#x3b;" k="87" />
    <hkern u1="T" u2="&#x3a;" k="87" />
    <hkern u1="T" u2="&#x2e;" k="111" />
    <hkern u1="T" u2="&#x2d;" k="129" />
    <hkern u1="T" u2="&#x2c;" k="111" />
    <hkern u1="V" u2="y" k="18" />
    <hkern u1="V" u2="u" k="37" />
    <hkern u1="V" u2="r" k="37" />
    <hkern u1="V" u2="o" k="55" />
    <hkern u1="V" u2="i" k="18" />
    <hkern u1="V" u2="e" k="55" />
    <hkern u1="V" u2="a" k="55" />
    <hkern u1="V" u2="A" k="55" />
    <hkern u1="V" u2="&#x3b;" k="50" />
    <hkern u1="V" u2="&#x3a;" k="50" />
    <hkern u1="V" u2="&#x2e;" k="105" />
    <hkern u1="V" u2="&#x2d;" k="55" />
    <hkern u1="V" u2="&#x2c;" k="129" />
    <hkern u1="W" u2="u" k="18" />
    <hkern u1="W" u2="r" k="18" />
    <hkern u1="W" u2="o" k="37" />
    <hkern u1="W" u2="e" k="37" />
    <hkern u1="W" u2="a" k="37" />
    <hkern u1="W" u2="A" k="55" />
    <hkern u1="W" u2="&#x3b;" k="18" />
    <hkern u1="W" u2="&#x3a;" k="18" />
    <hkern u1="W" u2="&#x2e;" k="74" />
    <hkern u1="W" u2="&#x2c;" k="74" />
    <hkern u1="Y" u2="v" k="55" />
    <hkern u1="Y" u2="u" k="74" />
    <hkern u1="Y" u2="q" k="92" />
    <hkern u1="Y" u2="p" k="74" />
    <hkern u1="Y" u2="o" k="92" />
    <hkern u1="Y" u2="i" k="13" />
    <hkern u1="Y" u2="e" k="92" />
    <hkern u1="Y" u2="a" k="92" />
    <hkern u1="Y" u2="A" k="74" />
    <hkern u1="Y" u2="&#x3b;" k="80" />
    <hkern u1="Y" u2="&#x3a;" k="92" />
    <hkern u1="Y" u2="&#x2e;" k="111" />
    <hkern u1="Y" u2="&#x2d;" k="111" />
    <hkern u1="Y" u2="&#x2c;" k="111" />
    <hkern u1="f" u2="&#x2019;" k="-18" />
    <hkern u1="f" u2="f" k="18" />
    <hkern u1="r" u2="y" k="-10" />
    <hkern u1="r" u2="w" k="-10" />
    <hkern u1="r" u2="v" k="-10" />
    <hkern u1="r" u2="q" k="18" />
    <hkern u1="r" u2="o" k="18" />
    <hkern u1="r" u2="n" k="-18" />
    <hkern u1="r" u2="e" k="18" />
    <hkern u1="r" u2="d" k="18" />
    <hkern u1="r" u2="c" k="18" />
    <hkern u1="r" u2="&#x2e;" k="92" />
    <hkern u1="r" u2="&#x2d;" k="55" />
    <hkern u1="r" u2="&#x2c;" k="92" />
    <hkern u1="v" u2="&#x2e;" k="60" />
    <hkern u1="v" u2="&#x2c;" k="60" />
    <hkern u1="w" u2="&#x2e;" k="55" />
    <hkern u1="w" u2="&#x2c;" k="55" />
    <hkern u1="y" u2="&#x2e;" k="60" />
    <hkern u1="y" u2="&#x2c;" k="92" />
    <hkern u1="&#x402;" u2="&#x423;" k="26" />
    <hkern u1="&#x403;" u2="&#x3b;" k="96" />
    <hkern u1="&#x403;" u2="&#x3a;" k="96" />
    <hkern u1="&#x403;" u2="&#x2e;" k="133" />
    <hkern u1="&#x409;" u2="&#x201d;" k="33" />
    <hkern u1="&#x409;" u2="&#x2019;" k="33" />
    <hkern u1="&#x409;" u2="&#x427;" k="45" />
    <hkern u1="&#x409;" u2="&#x423;" k="56" />
    <hkern u1="&#x409;" u2="&#x422;" k="68" />
    <hkern u1="&#x40a;" u2="&#x201d;" k="33" />
    <hkern u1="&#x40a;" u2="&#x2019;" k="33" />
    <hkern u1="&#x40a;" u2="&#x427;" k="45" />
    <hkern u1="&#x40a;" u2="&#x423;" k="56" />
    <hkern u1="&#x40a;" u2="&#x422;" k="68" />
    <hkern u1="&#x40b;" u2="&#x423;" k="26" />
    <hkern u1="&#x410;" u2="&#x201d;" k="74" />
    <hkern u1="&#x410;" u2="&#x2019;" k="74" />
    <hkern u1="&#x410;" u2="&#x442;" k="18" />
    <hkern u1="&#x410;" u2="&#x427;" k="43" />
    <hkern u1="&#x410;" u2="&#x422;" k="74" />
    <hkern u1="&#x410;" u2="&#x40b;" k="56" />
    <hkern u1="&#x410;" u2="&#x402;" k="56" />
    <hkern u1="&#x410;" u2="&#x2f;" k="-24" />
    <hkern u1="&#x411;" u2="&#x427;" k="29" />
    <hkern u1="&#x411;" u2="&#x425;" k="18" />
    <hkern u1="&#x411;" u2="&#x423;" k="18" />
    <hkern u1="&#x411;" u2="&#x422;" k="29" />
    <hkern u1="&#x411;" u2="&#x416;" k="18" />
    <hkern u1="&#x413;" u2="&#x44f;" k="137" />
    <hkern u1="&#x413;" u2="&#x44e;" k="127" />
    <hkern u1="&#x413;" u2="&#x44d;" k="137" />
    <hkern u1="&#x413;" u2="&#x446;" k="127" />
    <hkern u1="&#x413;" u2="&#x443;" k="127" />
    <hkern u1="&#x413;" u2="&#x440;" k="127" />
    <hkern u1="&#x413;" u2="&#x43e;" k="137" />
    <hkern u1="&#x413;" u2="&#x43d;" k="127" />
    <hkern u1="&#x413;" u2="&#x43c;" k="127" />
    <hkern u1="&#x413;" u2="&#x43b;" k="137" />
    <hkern u1="&#x413;" u2="&#x438;" k="127" />
    <hkern u1="&#x413;" u2="&#x436;" k="127" />
    <hkern u1="&#x413;" u2="&#x435;" k="137" />
    <hkern u1="&#x413;" u2="&#x434;" k="137" />
    <hkern u1="&#x413;" u2="&#x432;" k="127" />
    <hkern u1="&#x413;" u2="&#x430;" k="137" />
    <hkern u1="&#x413;" u2="&#x41b;" k="49" />
    <hkern u1="&#x413;" u2="&#x414;" k="43" />
    <hkern u1="&#x413;" u2="&#x410;" k="88" />
    <hkern u1="&#x413;" u2="&#x3b;" k="96" />
    <hkern u1="&#x413;" u2="&#x3a;" k="96" />
    <hkern u1="&#x413;" u2="&#x2f;" k="88" />
    <hkern u1="&#x413;" u2="&#x2e;" k="133" />
    <hkern u1="&#x413;" u2="&#x2d;" k="161" />
    <hkern u1="&#x413;" u2="&#x2c;" k="133" />
    <hkern u1="&#x416;" u2="&#x42d;" k="18" />
    <hkern u1="&#x416;" u2="&#x421;" k="18" />
    <hkern u1="&#x416;" u2="&#x41e;" k="18" />
    <hkern u1="&#x41a;" u2="&#x42d;" k="26" />
    <hkern u1="&#x41a;" u2="&#x424;" k="39" />
    <hkern u1="&#x41a;" u2="&#x421;" k="26" />
    <hkern u1="&#x41a;" u2="&#x41e;" k="26" />
    <hkern u1="&#x41e;" u2="&#x425;" k="26" />
    <hkern u1="&#x41e;" u2="&#x422;" k="18" />
    <hkern u1="&#x41e;" u2="&#x41b;" k="18" />
    <hkern u1="&#x41e;" u2="&#x416;" k="26" />
    <hkern u1="&#x41e;" u2="&#x414;" k="18" />
    <hkern u1="&#x41e;" u2="&#x409;" k="18" />
    <hkern u1="&#x420;" u2="&#x434;" k="26" />
    <hkern u1="&#x420;" u2="&#x425;" k="18" />
    <hkern u1="&#x420;" u2="&#x41b;" k="39" />
    <hkern u1="&#x420;" u2="&#x416;" k="26" />
    <hkern u1="&#x420;" u2="&#x414;" k="39" />
    <hkern u1="&#x420;" u2="&#x410;" k="74" />
    <hkern u1="&#x420;" u2="&#x2f;" k="24" />
    <hkern u1="&#x420;" u2="&#x2e;" k="129" />
    <hkern u1="&#x420;" u2="&#x2c;" k="129" />
    <hkern u1="&#x421;" u2="&#x425;" k="26" />
    <hkern u1="&#x421;" u2="&#x422;" k="18" />
    <hkern u1="&#x421;" u2="&#x41b;" k="18" />
    <hkern u1="&#x421;" u2="&#x416;" k="26" />
    <hkern u1="&#x421;" u2="&#x414;" k="18" />
    <hkern u1="&#x421;" u2="&#x409;" k="18" />
    <hkern u1="&#x422;" u2="&#x451;" k="86" />
    <hkern u1="&#x422;" u2="&#x44f;" k="111" />
    <hkern u1="&#x422;" u2="&#x44e;" k="92" />
    <hkern u1="&#x422;" u2="&#x44d;" k="111" />
    <hkern u1="&#x422;" u2="&#x44c;" k="92" />
    <hkern u1="&#x422;" u2="&#x44b;" k="92" />
    <hkern u1="&#x422;" u2="&#x449;" k="92" />
    <hkern u1="&#x422;" u2="&#x443;" k="88" />
    <hkern u1="&#x422;" u2="&#x440;" k="92" />
    <hkern u1="&#x422;" u2="&#x43e;" k="111" />
    <hkern u1="&#x422;" u2="&#x43d;" k="92" />
    <hkern u1="&#x422;" u2="&#x43c;" k="92" />
    <hkern u1="&#x422;" u2="&#x43b;" k="88" />
    <hkern u1="&#x422;" u2="&#x43a;" k="92" />
    <hkern u1="&#x422;" u2="&#x438;" k="92" />
    <hkern u1="&#x422;" u2="&#x435;" k="111" />
    <hkern u1="&#x422;" u2="&#x432;" k="92" />
    <hkern u1="&#x422;" u2="&#x430;" k="111" />
    <hkern u1="&#x422;" u2="&#x42d;" k="18" />
    <hkern u1="&#x422;" u2="&#x424;" k="49" />
    <hkern u1="&#x422;" u2="&#x421;" k="18" />
    <hkern u1="&#x422;" u2="&#x41e;" k="18" />
    <hkern u1="&#x422;" u2="&#x410;" k="74" />
    <hkern u1="&#x422;" u2="&#x3b;" k="87" />
    <hkern u1="&#x422;" u2="&#x3a;" k="87" />
    <hkern u1="&#x422;" u2="&#x2f;" k="72" />
    <hkern u1="&#x422;" u2="&#x2e;" k="111" />
    <hkern u1="&#x422;" u2="&#x2d;" k="129" />
    <hkern u1="&#x422;" u2="&#x2c;" k="111" />
    <hkern u1="&#x423;" u2="&#x459;" k="48" />
    <hkern u1="&#x423;" u2="&#x44f;" k="39" />
    <hkern u1="&#x423;" u2="&#x44e;" k="39" />
    <hkern u1="&#x423;" u2="&#x44d;" k="58" />
    <hkern u1="&#x423;" u2="&#x449;" k="39" />
    <hkern u1="&#x423;" u2="&#x448;" k="39" />
    <hkern u1="&#x423;" u2="&#x447;" k="39" />
    <hkern u1="&#x423;" u2="&#x446;" k="39" />
    <hkern u1="&#x423;" u2="&#x445;" k="39" />
    <hkern u1="&#x423;" u2="&#x444;" k="58" />
    <hkern u1="&#x423;" u2="&#x442;" k="39" />
    <hkern u1="&#x423;" u2="&#x441;" k="58" />
    <hkern u1="&#x423;" u2="&#x440;" k="39" />
    <hkern u1="&#x423;" u2="&#x43f;" k="39" />
    <hkern u1="&#x423;" u2="&#x43e;" k="58" />
    <hkern u1="&#x423;" u2="&#x43d;" k="39" />
    <hkern u1="&#x423;" u2="&#x43c;" k="39" />
    <hkern u1="&#x423;" u2="&#x43b;" k="48" />
    <hkern u1="&#x423;" u2="&#x43a;" k="39" />
    <hkern u1="&#x423;" u2="&#x439;" k="39" />
    <hkern u1="&#x423;" u2="&#x438;" k="39" />
    <hkern u1="&#x423;" u2="&#x437;" k="58" />
    <hkern u1="&#x423;" u2="&#x436;" k="39" />
    <hkern u1="&#x423;" u2="&#x435;" k="58" />
    <hkern u1="&#x423;" u2="&#x434;" k="48" />
    <hkern u1="&#x423;" u2="&#x433;" k="39" />
    <hkern u1="&#x423;" u2="&#x432;" k="39" />
    <hkern u1="&#x423;" u2="&#x431;" k="58" />
    <hkern u1="&#x423;" u2="&#x430;" k="58" />
    <hkern u1="&#x423;" u2="&#x42f;" k="18" />
    <hkern u1="&#x423;" u2="&#x424;" k="26" />
    <hkern u1="&#x423;" u2="&#x421;" k="18" />
    <hkern u1="&#x423;" u2="&#x41e;" k="18" />
    <hkern u1="&#x423;" u2="&#x41b;" k="39" />
    <hkern u1="&#x423;" u2="&#x414;" k="48" />
    <hkern u1="&#x423;" u2="&#x410;" k="77" />
    <hkern u1="&#x423;" u2="&#x409;" k="39" />
    <hkern u1="&#x423;" u2="&#x408;" k="96" />
    <hkern u1="&#x423;" u2="&#x3b;" k="50" />
    <hkern u1="&#x423;" u2="&#x3a;" k="50" />
    <hkern u1="&#x423;" u2="&#x2f;" k="64" />
    <hkern u1="&#x423;" u2="&#x2e;" k="105" />
    <hkern u1="&#x423;" u2="&#x2d;" k="55" />
    <hkern u1="&#x423;" u2="&#x2c;" k="105" />
    <hkern u1="&#x424;" u2="&#x423;" k="26" />
    <hkern u1="&#x424;" u2="&#x422;" k="26" />
    <hkern u1="&#x424;" u2="&#x410;" k="26" />
    <hkern u1="&#x425;" u2="&#x41e;" k="18" />
    <hkern u1="&#x42a;" u2="&#x201d;" k="33" />
    <hkern u1="&#x42a;" u2="&#x2019;" k="33" />
    <hkern u1="&#x42c;" u2="&#x201d;" k="33" />
    <hkern u1="&#x42c;" u2="&#x2019;" k="33" />
    <hkern u1="&#x42c;" u2="&#x427;" k="45" />
    <hkern u1="&#x42c;" u2="&#x423;" k="56" />
    <hkern u1="&#x42c;" u2="&#x422;" k="68" />
    <hkern u1="&#x42d;" u2="&#x425;" k="26" />
    <hkern u1="&#x42d;" u2="&#x422;" k="18" />
    <hkern u1="&#x42d;" u2="&#x41b;" k="18" />
    <hkern u1="&#x42d;" u2="&#x416;" k="26" />
    <hkern u1="&#x42d;" u2="&#x414;" k="18" />
    <hkern u1="&#x42d;" u2="&#x410;" k="26" />
    <hkern u1="&#x42e;" u2="&#x425;" k="26" />
    <hkern u1="&#x42e;" u2="&#x422;" k="18" />
    <hkern u1="&#x42e;" u2="&#x41b;" k="18" />
    <hkern u1="&#x42e;" u2="&#x416;" k="26" />
    <hkern u1="&#x42e;" u2="&#x414;" k="18" />
    <hkern u1="&#x42e;" u2="&#x409;" k="18" />
    <hkern u1="&#x431;" u2="&#x445;" k="18" />
    <hkern u1="&#x431;" u2="&#x442;" k="18" />
    <hkern u1="&#x431;" u2="&#x436;" k="26" />
    <hkern u1="&#x431;" u2="&#x434;" k="18" />
    <hkern u1="&#x433;" u2="&#x441;" k="18" />
    <hkern u1="&#x433;" u2="&#x43e;" k="18" />
    <hkern u1="&#x433;" u2="&#x43b;" k="26" />
    <hkern u1="&#x433;" u2="&#x435;" k="18" />
    <hkern u1="&#x433;" u2="&#x434;" k="33" />
    <hkern u1="&#x433;" u2="&#x430;" k="18" />
    <hkern u1="&#x433;" u2="&#x2f;" k="64" />
    <hkern u1="&#x433;" u2="&#x2e;" k="96" />
    <hkern u1="&#x433;" u2="&#x2d;" k="56" />
    <hkern u1="&#x433;" u2="&#x2c;" k="96" />
    <hkern u1="&#x435;" u2="&#x459;" k="12" />
    <hkern u1="&#x435;" u2="&#x445;" k="18" />
    <hkern u1="&#x435;" u2="&#x442;" k="18" />
    <hkern u1="&#x435;" u2="&#x43b;" k="12" />
    <hkern u1="&#x435;" u2="&#x436;" k="26" />
    <hkern u1="&#x435;" u2="&#x434;" k="12" />
    <hkern u1="&#x436;" u2="&#x44d;" k="18" />
    <hkern u1="&#x436;" u2="&#x441;" k="18" />
    <hkern u1="&#x436;" u2="&#x43e;" k="18" />
    <hkern u1="&#x436;" u2="&#x435;" k="18" />
    <hkern u1="&#x436;" u2="&#x431;" k="18" />
    <hkern u1="&#x43a;" u2="&#x44d;" k="18" />
    <hkern u1="&#x43a;" u2="&#x441;" k="18" />
    <hkern u1="&#x43a;" u2="&#x43e;" k="18" />
    <hkern u1="&#x43a;" u2="&#x435;" k="18" />
    <hkern u1="&#x43e;" u2="&#x459;" k="12" />
    <hkern u1="&#x43e;" u2="&#x445;" k="18" />
    <hkern u1="&#x43e;" u2="&#x442;" k="18" />
    <hkern u1="&#x43e;" u2="&#x43b;" k="12" />
    <hkern u1="&#x43e;" u2="&#x436;" k="26" />
    <hkern u1="&#x43e;" u2="&#x434;" k="12" />
    <hkern u1="&#x440;" u2="&#x445;" k="18" />
    <hkern u1="&#x440;" u2="&#x442;" k="18" />
    <hkern u1="&#x440;" u2="&#x43b;" k="12" />
    <hkern u1="&#x440;" u2="&#x436;" k="26" />
    <hkern u1="&#x440;" u2="&#x434;" k="12" />
    <hkern u1="&#x441;" u2="&#x445;" k="18" />
    <hkern u1="&#x441;" u2="&#x442;" k="18" />
    <hkern u1="&#x441;" u2="&#x43b;" k="12" />
    <hkern u1="&#x441;" u2="&#x436;" k="26" />
    <hkern u1="&#x441;" u2="&#x434;" k="12" />
    <hkern u1="&#x442;" u2="&#x44d;" k="18" />
    <hkern u1="&#x442;" u2="&#x444;" k="18" />
    <hkern u1="&#x442;" u2="&#x441;" k="18" />
    <hkern u1="&#x442;" u2="&#x43e;" k="18" />
    <hkern u1="&#x442;" u2="&#x43b;" k="26" />
    <hkern u1="&#x442;" u2="&#x435;" k="18" />
    <hkern u1="&#x442;" u2="&#x430;" k="18" />
    <hkern u1="&#x442;" u2="&#x2e;" k="64" />
    <hkern u1="&#x442;" u2="&#x2d;" k="52" />
    <hkern u1="&#x442;" u2="&#x2c;" k="64" />
    <hkern u1="&#x443;" u2="&#x44d;" k="18" />
    <hkern u1="&#x443;" u2="&#x444;" k="18" />
    <hkern u1="&#x443;" u2="&#x441;" k="18" />
    <hkern u1="&#x443;" u2="&#x43e;" k="18" />
    <hkern u1="&#x443;" u2="&#x437;" k="18" />
    <hkern u1="&#x443;" u2="&#x435;" k="18" />
    <hkern u1="&#x443;" u2="&#x434;" k="18" />
    <hkern u1="&#x443;" u2="&#x430;" k="18" />
    <hkern u1="&#x443;" u2="&#x2e;" k="60" />
    <hkern u1="&#x443;" u2="&#x2c;" k="60" />
    <hkern u1="&#x444;" u2="&#x442;" k="18" />
    <hkern u1="&#x445;" u2="&#x44d;" k="18" />
    <hkern u1="&#x445;" u2="&#x441;" k="18" />
    <hkern u1="&#x445;" u2="&#x43e;" k="18" />
    <hkern u1="&#x445;" u2="&#x435;" k="18" />
    <hkern u1="&#x44c;" u2="&#x201d;" k="56" />
    <hkern u1="&#x44c;" u2="&#x2019;" k="56" />
    <hkern u1="&#x44c;" u2="&#x447;" k="30" />
    <hkern u1="&#x44c;" u2="&#x442;" k="52" />
    <hkern u1="&#x44c;" u2="&#x436;" k="18" />
    <hkern u1="&#x44d;" u2="&#x445;" k="18" />
    <hkern u1="&#x44d;" u2="&#x442;" k="18" />
    <hkern u1="&#x44d;" u2="&#x43b;" k="12" />
    <hkern u1="&#x44d;" u2="&#x436;" k="26" />
    <hkern u1="&#x44d;" u2="&#x434;" k="12" />
    <hkern u1="&#x44e;" u2="&#x445;" k="18" />
    <hkern u1="&#x44e;" u2="&#x442;" k="18" />
    <hkern u1="&#x44e;" u2="&#x43b;" k="12" />
    <hkern u1="&#x44e;" u2="&#x436;" k="26" />
    <hkern u1="&#x44e;" u2="&#x434;" k="12" />
    <hkern u1="&#x452;" u2="&#x443;" k="18" />
    <hkern u1="&#x459;" u2="&#x201d;" k="56" />
    <hkern u1="&#x459;" u2="&#x2019;" k="56" />
    <hkern u1="&#x459;" u2="&#x443;" k="26" />
    <hkern u1="&#x459;" u2="&#x442;" k="52" />
    <hkern u1="&#x45a;" u2="&#x201d;" k="56" />
    <hkern u1="&#x45a;" u2="&#x2019;" k="56" />
    <hkern u1="&#x45a;" u2="&#x443;" k="26" />
    <hkern u1="&#x45a;" u2="&#x442;" k="52" />
    <hkern u1="&#x45b;" u2="&#x443;" k="18" />
    <hkern u1="&#x490;" u2="&#x44f;" k="137" />
    <hkern u1="&#x490;" u2="&#x44d;" k="137" />
    <hkern u1="&#x490;" u2="&#x43e;" k="137" />
    <hkern u1="&#x490;" u2="&#x435;" k="137" />
    <hkern u1="&#x490;" u2="&#x430;" k="137" />
    <hkern u1="&#x490;" u2="&#x41b;" k="49" />
    <hkern u1="&#x490;" u2="&#x414;" k="43" />
    <hkern u1="&#x490;" u2="&#x410;" k="88" />
    <hkern u1="&#x490;" u2="&#x3b;" k="96" />
    <hkern u1="&#x490;" u2="&#x3a;" k="96" />
    <hkern u1="&#x490;" u2="&#x2e;" k="133" />
    <hkern u1="&#x491;" u2="&#x441;" k="18" />
    <hkern u1="&#x491;" u2="&#x43e;" k="18" />
    <hkern u1="&#x491;" u2="&#x435;" k="18" />
    <hkern u1="&#x491;" u2="&#x430;" k="18" />
    <hkern u1="&#x2018;" u2="&#x2018;" k="52" />
    <hkern u1="&#x2018;" u2="&#x459;" k="32" />
    <hkern u1="&#x2018;" u2="&#x443;" k="-40" />
    <hkern u1="&#x2018;" u2="&#x43b;" k="32" />
    <hkern u1="&#x2018;" u2="&#x434;" k="32" />
    <hkern u1="&#x2018;" u2="&#x41b;" k="33" />
    <hkern u1="&#x2018;" u2="&#x414;" k="33" />
    <hkern u1="&#x2018;" u2="&#x410;" k="65" />
    <hkern u1="&#x2018;" u2="&#x409;" k="33" />
    <hkern u1="&#x2019;" u2="&#x2019;" k="52" />
    <hkern u1="&#x2019;" u2="t" k="18" />
    <hkern u1="&#x2019;" u2="s" k="74" />
    <hkern u1="&#x201c;" u2="&#x459;" k="32" />
    <hkern u1="&#x201c;" u2="&#x443;" k="-40" />
    <hkern u1="&#x201c;" u2="&#x43b;" k="32" />
    <hkern u1="&#x201c;" u2="&#x434;" k="32" />
    <hkern u1="&#x201c;" u2="&#x41b;" k="33" />
    <hkern u1="&#x201c;" u2="&#x414;" k="33" />
    <hkern u1="&#x201c;" u2="&#x410;" k="65" />
    <hkern u1="&#x201c;" u2="&#x409;" k="33" />
  </font>
</defs></svg>
